E: 962.758962 0003 002f 0
E: 962.758962 0003 0030 286
E: 962.758962 0003 0031 0
E: 962.758962 0003 0032 0
E: 962.758962 0003 0033 0
E: 962.758962 0003 0034 0
E: 962.758962 0003 0035 565
E: 962.758962 0003 0036 1225
E: 962.758962 0003 0037 0
E: 962.758962 0003 0038 0
E: 962.758962 0003 0039 377
E: 962.758962 0003 003a 66
E: 962.758962 0003 003b 0
E: 962.758962 0003 002f 1
E: 962.758962 0003 0039 -1
E: 962.758962 0003 002f 2
E: 962.758962 0003 0039 -1
E: 962.758962 0003 002f 3
E: 962.758962 0003 0039 -1
E: 962.758962 0003 002f 4
E: 962.758962 0003 0039 -1
E: 962.758962 0003 002f 5
E: 962.758962 0003 0039 -1
E: 962.758962 0003 002f 6
E: 962.758962 0003 0039 -1
E: 962.758962 0003 002f 7
E: 962.758962 0003 0039 -1
E: 962.758962 0003 002f 8
E: 962.758962 0003 0039 -1
E: 962.758962 0003 002f 9
E: 962.758962 0003 0039 -1
E: 962.758962 0003 002f 0
E: 962.758962 0001 0145 1
E: 962.758962 0001 014a 1
E: 962.758962 0000 0000 0
E: 962.764303 0003 0030 312
E: 962.764305 0000 0000 0
E: 962.769680 0003 003a 65
E: 962.769681 0003 0030 286
E: 962.769682 0003 0018 65
E: 962.769682 0000 0000 0
E: 962.775065 0003 003a 66
E: 962.775066 0003 0018 66
E: 962.775067 0000 0000 0
E: 962.785881 0003 003a 68
E: 962.785883 0003 0018 68
E: 962.785883 0000 0000 0
E: 962.791263 0003 003a 64
E: 962.791263 0003 0030 254
E: 962.791264 0003 0018 64
E: 962.791264 0000 0000 0
E: 962.807631 0003 003a 65
E: 962.807633 0003 0030 286
E: 962.807637 0003 0018 65
E: 962.807637 0000 0000 0
E: 962.813726 0003 0035 564
E: 962.813728 0003 003a 64
E: 962.813733 0003 0000 564
E: 962.813734 0003 0018 64
E: 962.813735 0000 0000 0
E: 962.824448 0003 003a 63
E: 962.824449 0003 0018 63
E: 962.824450 0000 0000 0
E: 962.829799 0003 003a 61
E: 962.829804 0003 0018 61
E: 962.829804 0000 0000 0
E: 962.835203 0003 003a 56
E: 962.835204 0003 0030 254
E: 962.835205 0003 0018 56
E: 962.835205 0000 0000 0
E: 962.840730 0003 003a 50
E: 962.840730 0003 0030 220
E: 962.840732 0003 0018 50
E: 962.840732 0000 0000 0
E: 962.846305 0003 003a 42
E: 962.846310 0003 0018 42
E: 962.846310 0000 0000 0
E: 962.851789 0003 003a 30
E: 962.851790 0003 0030 126
E: 962.851794 0003 0018 30
E: 962.851794 0000 0000 0
E: 962.857260 0003 003a 24
E: 962.857266 0003 0018 24
E: 962.857266 0000 0000 0
E: 962.877617 0003 0039 -1
E: 962.877618 0001 014a 0
E: 962.877618 0001 0145 0
E: 962.877619 0003 0018 0
E: 962.877619 0000 0000 0
E: 962.878119 0003 002f 0
E: 962.878119 0003 0039 -1
E: 962.878119 0003 002f 1
E: 962.878119 0003 0039 -1
E: 962.878119 0003 002f 2
E: 962.878119 0003 0039 -1
E: 962.878119 0003 002f 3
E: 962.878119 0003 0039 -1
E: 962.878119 0003 002f 4
E: 962.878119 0003 0039 -1
E: 962.878119 0003 002f 5
E: 962.878119 0003 0039 -1
E: 962.878119 0003 002f 6
E: 962.878119 0003 0039 -1
E: 962.878119 0003 002f 7
E: 962.878119 0003 0039 -1
E: 962.878119 0003 002f 8
E: 962.878119 0003 0039 -1
E: 962.878119 0003 002f 9
E: 962.878119 0003 0039 -1
