# device: Atmel-maXTouch-Touchpad
# bit: 0B 00 00 00 00 00 00 00
# key: 00 00 00 00 00 00 00 00 00 00 00 00 00 00 00 00 00 00 00 00 00 00 00 00 00 00 00 00 00 00 00 00 00 00 01 00 00 00 00 00 20 E5 00 00 00 00 00 00 00 00 00 00 00 00 00 00 00 00 00 00 00 00 00 00 00 00 00 00 00 00 00 00 00 00 00 00 00 00 00 00 00 00 00 00 00 00 00 00 00 00 00 00 00 00 00 00
# rel: 00 00 00 00 00 00 00 00
# abs: 03 00 00 01 00 80 61 06
# led: 00 00 00 00 00 00 00 00
# prp: 05 00 00 00 00 00 00 00
# absinfo: 0 0 2039 0 0 20
# absinfo: 1 0 1359 0 0 20
# absinfo: 24 0 255 0 0 0
# absinfo: 47 0 9 0 0 0
# absinfo: 48 0 1878 0 0 0
# absinfo: 53 0 2039 0 0 20
# absinfo: 54 0 1359 0 0 20
# absinfo: 57 0 65535 0 0 0
# absinfo: 58 0 255 0 0 0
E: 1579.212524 0003 002f 0
E: 1579.212524 0003 0030 126
E: 1579.212524 0003 0031 0
E: 1579.212524 0003 0032 0
E: 1579.212524 0003 0033 0
E: 1579.212524 0003 0034 0
E: 1579.212524 0003 0035 1101
E: 1579.212524 0003 0036 1342
E: 1579.212524 0003 0037 0
E: 1579.212524 0003 0038 0
E: 1579.212524 0003 0039 247
E: 1579.212524 0003 003a 25
E: 1579.212524 0003 003b 0
E: 1579.212524 0003 002f 1
E: 1579.212524 0003 0039 -1
E: 1579.212524 0003 002f 2
E: 1579.212524 0003 0039 -1
E: 1579.212524 0003 002f 3
E: 1579.212524 0003 0039 -1
E: 1579.212524 0003 002f 4
E: 1579.212524 0003 0039 -1
E: 1579.212524 0003 002f 5
E: 1579.212524 0003 0039 -1
E: 1579.212524 0003 002f 6
E: 1579.212524 0003 0039 -1
E: 1579.212524 0003 002f 7
E: 1579.212524 0003 0039 -1
E: 1579.212524 0003 002f 8
E: 1579.212524 0003 0039 -1
E: 1579.212524 0003 002f 9
E: 1579.212524 0003 0039 -1
E: 1579.212524 0003 002f 0
E: 1579.212524 0001 0145 1
E: 1579.212524 0001 014a 1
E: 1579.212524 0000 0000 0
E: 1579.218169 0003 003a 24
E: 1579.218174 0003 0018 24
E: 1579.218174 0000 0000 0
E: 1579.223812 0003 003a 25
E: 1579.223815 0003 0018 25
E: 1579.223815 0000 0000 0
E: 1579.235150 0003 003a 24
E: 1579.235153 0003 0018 24
E: 1579.235153 0000 0000 0
E: 1579.242014 0003 0035 1100
E: 1579.242016 0003 003a 27
E: 1579.242019 0003 0000 1100
E: 1579.242020 0003 0018 27
E: 1579.242031 0000 0000 0
E: 1579.248865 0003 0035 1099
E: 1579.248867 0003 003a 31
E: 1579.248870 0003 0000 1099
E: 1579.248871 0003 0018 31
E: 1579.248871 0000 0000 0
E: 1579.256198 0003 0035 1098
E: 1579.256200 0003 003a 30
E: 1579.256202 0003 002f 1
E: 1579.256202 0003 0039 248
E: 1579.256203 0003 0035 1356
E: 1579.256203 0003 0036 517
E: 1579.256204 0003 003a 26
E: 1579.256206 0001 0145 0
E: 1579.256206 0001 014d 1
E: 1579.256218 0003 0000 1098
E: 1579.256219 0003 0018 30
E: 1579.256219 0000 0000 0
E: 1579.263078 0003 002f 0
E: 1579.263080 0003 0035 1097
E: 1579.263080 0003 003a 32
E: 1579.263083 0003 002f 1
E: 1579.263083 0003 003a 28
E: 1579.263086 0003 0000 1097
E: 1579.263097 0003 0018 32
E: 1579.263097 0000 0000 0
E: 1579.269904 0003 002f 0
E: 1579.269904 0003 0035 1096
E: 1579.269906 0003 002f 1
E: 1579.269906 0003 0035 1355
E: 1579.269906 0003 0036 518
E: 1579.269906 0003 003a 23
E: 1579.269907 0003 0000 1096
E: 1579.269908 0000 0000 0
E: 1579.276926 0003 002f 0
E: 1579.276927 0003 0035 1094
E: 1579.276927 0003 003a 35
E: 1579.276927 0003 0030 180
E: 1579.276928 0003 002f 1
E: 1579.276928 0003 0035 1354
E: 1579.276929 0003 0036 519
E: 1579.276929 0003 003a 21
E: 1579.276930 0003 0000 1094
E: 1579.276931 0003 0018 35
E: 1579.276931 0000 0000 0
E: 1579.282811 0003 002f 0
E: 1579.282812 0003 0035 1093
E: 1579.282812 0003 003a 31
E: 1579.282812 0003 0030 126
E: 1579.282813 0003 0000 1093
E: 1579.282814 0003 0018 31
E: 1579.282814 0000 0000 0
E: 1579.288469 0003 0035 1092
E: 1579.288470 0003 003a 32
E: 1579.288471 0003 0000 1092
E: 1579.288472 0003 0018 32
E: 1579.288472 0000 0000 0
E: 1579.294220 0003 0035 1090
E: 1579.294222 0003 0000 1090
E: 1579.294223 0000 0000 0
E: 1579.299931 0003 0035 1089
E: 1579.299932 0003 003a 31
E: 1579.299933 0003 0000 1089
E: 1579.299934 0003 0018 31
E: 1579.299934 0000 0000 0
E: 1579.305950 0003 0035 1088
E: 1579.305950 0003 003a 33
E: 1579.305951 0003 002f 1
E: 1579.305951 0003 0039 -1
E: 1579.305952 0001 0145 1
E: 1579.305952 0001 014d 0
E: 1579.305952 0003 0000 1088
E: 1579.305953 0003 0018 33
E: 1579.305953 0000 0000 0
E: 1579.311333 0003 002f 0
E: 1579.311333 0003 0035 1087
E: 1579.311334 0003 003a 34
E: 1579.311335 0003 0000 1087
E: 1579.311335 0003 0018 34
E: 1579.311335 0000 0000 0
E: 1579.317118 0003 0035 1085
E: 1579.317119 0003 003a 33
E: 1579.317119 0003 0030 180
E: 1579.317120 0003 0000 1085
E: 1579.317120 0003 0018 33
E: 1579.317121 0000 0000 0
E: 1579.323015 0003 0035 1084
E: 1579.323018 0003 003a 34
E: 1579.323021 0003 0000 1084
E: 1579.323022 0003 0018 34
E: 1579.323023 0000 0000 0
E: 1579.328737 0003 0035 1083
E: 1579.328742 0003 0000 1083
E: 1579.328743 0000 0000 0
E: 1579.340206 0003 0035 1081
E: 1579.340208 0003 003a 37
E: 1579.340211 0003 0000 1081
E: 1579.340212 0003 0018 37
E: 1579.340213 0000 0000 0
E: 1579.347128 0003 0035 1080
E: 1579.347130 0003 003a 39
E: 1579.347134 0003 0000 1080
E: 1579.347135 0003 0018 39
E: 1579.347135 0000 0000 0
E: 1579.353992 0003 0035 1078
E: 1579.353993 0003 003a 40
E: 1579.353996 0003 0000 1078
E: 1579.353997 0003 0018 40
E: 1579.353997 0000 0000 0
E: 1579.361527 0003 0035 1076
E: 1579.361529 0003 003a 39
E: 1579.361531 0003 002f 1
E: 1579.361531 0003 0039 249
E: 1579.361532 0003 0035 1343
E: 1579.361532 0003 0036 660
E: 1579.361533 0003 003a 30
E: 1579.361533 0003 0030 180
E: 1579.361535 0001 0145 0
E: 1579.361546 0001 014d 1
E: 1579.361547 0003 0000 1076
E: 1579.361548 0003 0018 39
E: 1579.361548 0000 0000 0
E: 1579.368578 0003 002f 0
E: 1579.368580 0003 0035 1074
E: 1579.368580 0003 003a 42
E: 1579.368583 0003 002f 1
E: 1579.368583 0003 003a 33
E: 1579.368586 0003 0000 1074
E: 1579.368597 0003 0018 42
E: 1579.368598 0000 0000 0
E: 1579.375618 0003 002f 0
E: 1579.375620 0003 0035 1072
E: 1579.375621 0003 0036 1341
E: 1579.375623 0003 002f 1
E: 1579.375623 0003 0036 661
E: 1579.375637 0003 0000 1072
E: 1579.375637 0003 0001 1341
E: 1579.375637 0000 0000 0
E: 1579.382610 0003 002f 0
E: 1579.382612 0003 0035 1070
E: 1579.382613 0003 003a 43
E: 1579.382614 0003 002f 1
E: 1579.382615 0003 0035 1342
E: 1579.382615 0003 0036 663
E: 1579.382616 0003 003a 36
E: 1579.382629 0003 0000 1070
E: 1579.382629 0003 0018 43
E: 1579.382630 0000 0000 0
E: 1579.389704 0003 002f 0
E: 1579.389706 0003 0035 1068
E: 1579.389708 0003 002f 1
E: 1579.389708 0003 0035 1343
E: 1579.389709 0003 0036 665
E: 1579.389710 0003 003a 38
E: 1579.389710 0003 0030 220
E: 1579.389713 0003 0000 1068
E: 1579.389725 0000 0000 0
E: 1579.396778 0003 002f 0
E: 1579.396780 0003 0035 1067
E: 1579.396781 0003 003a 42
E: 1579.396782 0003 0030 220
E: 1579.396783 0003 002f 1
E: 1579.396784 0003 0035 1342
E: 1579.396784 0003 0036 670
E: 1579.396785 0003 003a 41
E: 1579.396798 0003 0000 1067
E: 1579.396799 0003 0018 42
E: 1579.396799 0000 0000 0
E: 1579.404494 0003 002f 0
E: 1579.404495 0003 0035 1065
E: 1579.404496 0003 003a 40
E: 1579.404496 0003 0030 180
E: 1579.404498 0003 002f 1
E: 1579.404498 0003 0036 675
E: 1579.404499 0003 003a 43
E: 1579.404502 0003 0000 1065
E: 1579.404502 0003 0018 40
E: 1579.404503 0000 0000 0
E: 1579.411703 0003 002f 0
E: 1579.411704 0003 0035 1064
E: 1579.411706 0003 002f 1
E: 1579.411707 0003 0035 1343
E: 1579.411707 0003 0036 681
E: 1579.411708 0003 003a 42
E: 1579.411708 0003 0030 180
E: 1579.411722 0003 0000 1064
E: 1579.411722 0000 0000 0
E: 1579.418721 0003 002f 0
E: 1579.418723 0003 0035 1062
E: 1579.418724 0003 0036 1340
E: 1579.418724 0003 003a 43
E: 1579.418726 0003 002f 1
E: 1579.418726 0003 0036 688
E: 1579.418727 0003 003a 47
E: 1579.418730 0003 0000 1062
E: 1579.418741 0003 0001 1340
E: 1579.418741 0003 0018 43
E: 1579.418741 0000 0000 0
E: 1579.425741 0003 002f 0
E: 1579.425743 0003 0035 1061
E: 1579.425744 0003 003a 44
E: 1579.425745 0003 0030 254
E: 1579.425747 0003 002f 1
E: 1579.425747 0003 0036 694
E: 1579.425748 0003 003a 46
E: 1579.425760 0003 0000 1061
E: 1579.425761 0003 0018 44
E: 1579.425761 0000 0000 0
E: 1579.432783 0003 002f 0
E: 1579.432784 0003 0035 1060
E: 1579.432785 0003 003a 43
E: 1579.432786 0003 0030 220
E: 1579.432787 0003 002f 1
E: 1579.432788 0003 0035 1344
E: 1579.432788 0003 0036 700
E: 1579.432802 0003 0000 1060
E: 1579.432803 0003 0018 43
E: 1579.432803 0000 0000 0
E: 1579.439759 0003 002f 0
E: 1579.439761 0003 0035 1059
E: 1579.439762 0003 0030 180
E: 1579.439764 0003 002f 1
E: 1579.439764 0003 0036 704
E: 1579.439765 0003 003a 49
E: 1579.439768 0003 0000 1059
E: 1579.439769 0000 0000 0
E: 1579.446821 0003 002f 0
E: 1579.446822 0003 0035 1058
E: 1579.446823 0003 003a 44
E: 1579.446825 0003 002f 1
E: 1579.446825 0003 0036 709
E: 1579.446829 0003 0000 1058
E: 1579.446830 0003 0018 44
E: 1579.446830 0000 0000 0
E: 1579.453857 0003 002f 0
E: 1579.453858 0003 0035 1057
E: 1579.453859 0003 0036 1339
E: 1579.453859 0003 003a 45
E: 1579.453860 0003 0030 254
E: 1579.453862 0003 002f 1
E: 1579.453862 0003 0035 1343
E: 1579.453862 0003 0036 713
E: 1579.453865 0003 0000 1057
E: 1579.453866 0003 0001 1339
E: 1579.453866 0003 0018 45
E: 1579.453867 0000 0000 0
E: 1579.460866 0003 002f 0
E: 1579.460867 0003 0035 1056
E: 1579.460868 0003 003a 44
E: 1579.460869 0003 0030 180
E: 1579.460870 0003 002f 1
E: 1579.460871 0003 0036 715
E: 1579.460871 0003 003a 51
E: 1579.460874 0003 0000 1056
E: 1579.460875 0003 0018 44
E: 1579.460875 0000 0000 0
E: 1579.467969 0003 002f 0
E: 1579.467970 0003 0035 1055
E: 1579.467971 0003 003a 46
E: 1579.467972 0003 0030 254
E: 1579.467974 0003 002f 1
E: 1579.467974 0003 0036 717
E: 1579.467975 0003 003a 52
E: 1579.467988 0003 0000 1055
E: 1579.467988 0003 0018 46
E: 1579.467988 0000 0000 0
E: 1579.474866 0003 002f 0
E: 1579.474867 0003 0035 1054
E: 1579.474870 0003 002f 1
E: 1579.474870 0003 0036 719
E: 1579.474871 0003 003a 53
E: 1579.474874 0003 0000 1054
E: 1579.474886 0000 0000 0
E: 1579.482341 0003 002f 0
E: 1579.482342 0003 0036 1338
E: 1579.482343 0003 003a 44
E: 1579.482343 0003 0030 220
E: 1579.482345 0003 002f 1
E: 1579.482345 0003 0036 720
E: 1579.482346 0003 003a 55
E: 1579.482346 0003 0030 220
E: 1579.482347 0001 0110 1
E: 1579.482350 0003 0001 1338
E: 1579.482350 0003 0018 44
E: 1579.482351 0000 0000 0
E: 1579.489079 0003 002f 0
E: 1579.489081 0003 0035 1053
E: 1579.489082 0003 003a 47
E: 1579.489082 0003 0030 254
E: 1579.489084 0003 002f 1
E: 1579.489085 0003 0036 721
E: 1579.489085 0003 003a 54
E: 1579.489098 0003 0000 1053
E: 1579.489098 0003 0018 47
E: 1579.489099 0000 0000 0
E: 1579.495685 0003 0036 722
E: 1579.495686 0003 003a 57
E: 1579.495686 0003 0030 180
E: 1579.495689 0000 0000 0
E: 1579.503200 0003 002f 0
E: 1579.503202 0003 0035 1052
E: 1579.503203 0003 003a 45
E: 1579.503205 0003 002f 1
E: 1579.503205 0003 0036 723
E: 1579.503206 0003 003a 53
E: 1579.503219 0003 0000 1052
E: 1579.503220 0003 0018 45
E: 1579.503220 0000 0000 0
E: 1579.509921 0003 0036 724
E: 1579.509923 0003 003a 55
E: 1579.509923 0003 0030 220
E: 1579.509927 0000 0000 0
E: 1579.517241 0003 002f 0
E: 1579.517242 0003 0035 1051
E: 1579.517243 0003 0036 1337
E: 1579.517243 0003 003a 46
E: 1579.517245 0003 002f 1
E: 1579.517246 0003 003a 53
E: 1579.517246 0003 0030 180
E: 1579.517249 0003 0000 1051
E: 1579.517260 0003 0001 1337
E: 1579.517261 0003 0018 46
E: 1579.517261 0000 0000 0
E: 1579.523828 0003 0036 725
E: 1579.523829 0003 003a 54
E: 1579.523831 0000 0000 0
E: 1579.531257 0003 002f 0
E: 1579.531258 0003 0035 1050
E: 1579.531261 0003 002f 1
E: 1579.531261 0003 003a 53
E: 1579.531262 0003 0030 220
E: 1579.531265 0003 0000 1050
E: 1579.531266 0000 0000 0
E: 1579.538363 0003 002f 0
E: 1579.538364 0003 003a 47
E: 1579.538365 0003 002f 1
E: 1579.538365 0003 0036 726
E: 1579.538365 0003 003a 57
E: 1579.538367 0003 0018 47
E: 1579.538368 0000 0000 0
E: 1579.545371 0003 002f 0
E: 1579.545372 0003 0035 1049
E: 1579.545373 0003 003a 49
E: 1579.545375 0003 002f 1
E: 1579.545375 0003 003a 56
E: 1579.545376 0003 0030 254
E: 1579.545389 0003 0000 1049
E: 1579.545389 0003 0018 49
E: 1579.545390 0000 0000 0
E: 1579.552325 0003 002f 0
E: 1579.552326 0003 0036 1336
E: 1579.552327 0003 003a 46
E: 1579.552329 0003 002f 1
E: 1579.552329 0003 0036 727
E: 1579.552329 0003 003a 53
E: 1579.552330 0003 0030 180
E: 1579.552332 0003 0001 1336
E: 1579.552333 0003 0018 46
E: 1579.552333 0000 0000 0
E: 1579.559365 0003 002f 0
E: 1579.559367 0003 0035 1048
E: 1579.559368 0003 003a 47
E: 1579.559370 0003 002f 1
E: 1579.559370 0003 003a 54
E: 1579.559371 0003 0030 220
E: 1579.559384 0003 0000 1048
E: 1579.559385 0003 0018 47
E: 1579.559385 0000 0000 0
E: 1579.566493 0003 002f 0
E: 1579.566495 0003 0035 1047
E: 1579.566496 0003 003a 48
E: 1579.566498 0003 002f 1
E: 1579.566499 0003 003a 53
E: 1579.566512 0003 0000 1047
E: 1579.566512 0003 0018 48
E: 1579.566513 0000 0000 0
E: 1579.573467 0003 002f 0
E: 1579.573468 0003 003a 45
E: 1579.573470 0003 002f 1
E: 1579.573471 0003 0036 728
E: 1579.573471 0003 003a 52
E: 1579.573472 0003 0030 180
E: 1579.573475 0003 0018 45
E: 1579.573486 0000 0000 0
E: 1579.580617 0003 002f 0
E: 1579.580619 0003 003a 48
E: 1579.580621 0003 002f 1
E: 1579.580621 0003 003a 51
E: 1579.580625 0003 0018 48
E: 1579.580636 0000 0000 0
E: 1579.587646 0003 002f 0
E: 1579.587648 0003 0035 1046
E: 1579.587648 0003 0036 1335
E: 1579.587651 0003 002f 1
E: 1579.587651 0003 003a 48
E: 1579.587654 0003 0000 1046
E: 1579.587655 0003 0001 1335
E: 1579.587656 0000 0000 0
E: 1579.594723 0003 002f 0
E: 1579.594725 0003 003a 47
E: 1579.594727 0003 002f 1
E: 1579.594727 0003 0036 729
E: 1579.594728 0003 003a 42
E: 1579.594731 0003 0018 47
E: 1579.594732 0000 0000 0
E: 1579.602225 0003 0036 730
E: 1579.602227 0003 003a 35
E: 1579.602231 0000 0000 0
E: 1579.609974 0003 002f 0
E: 1579.609976 0003 0035 1045
E: 1579.609977 0003 003a 45
E: 1579.609979 0003 002f 1
E: 1579.609979 0003 0035 1344
E: 1579.609979 0003 0036 733
E: 1579.609980 0003 003a 22
E: 1579.609980 0003 0030 126
E: 1579.609982 0001 0110 0
E: 1579.609995 0003 0000 1045
E: 1579.609995 0003 0018 45
E: 1579.609995 0000 0000 0
E: 1579.615620 0003 002f 0
E: 1579.615620 0003 003a 49
E: 1579.615622 0003 0018 49
E: 1579.615623 0000 0000 0
E: 1579.621493 0003 003a 45
E: 1579.621494 0003 0030 220
E: 1579.621496 0003 0018 45
E: 1579.621497 0000 0000 0
E: 1579.627357 0003 0035 1044
E: 1579.627359 0003 003a 46
E: 1579.627360 0003 0030 254
E: 1579.627363 0003 0000 1044
E: 1579.627364 0003 0018 46
E: 1579.627364 0000 0000 0
E: 1579.633070 0003 003a 43
E: 1579.633070 0003 0030 220
E: 1579.633072 0003 0018 43
E: 1579.633072 0000 0000 0
E: 1579.639196 0003 0035 1045
E: 1579.639198 0003 003a 45
E: 1579.639200 0003 002f 1
E: 1579.639200 0003 0039 -1
E: 1579.639202 0001 0145 1
E: 1579.639203 0001 014d 0
E: 1579.639215 0003 0000 1045
E: 1579.639216 0003 0018 45
E: 1579.639216 0000 0000 0
E: 1579.644539 0003 002f 0
E: 1579.644540 0003 003a 39
E: 1579.644543 0003 0018 39
E: 1579.644544 0000 0000 0
E: 1579.650382 0003 003a 41
E: 1579.650384 0003 0030 180
E: 1579.650387 0003 0018 41
E: 1579.650387 0000 0000 0
E: 1579.656065 0003 003a 34
E: 1579.656070 0003 0018 34
E: 1579.656071 0000 0000 0
E: 1579.661862 0003 0035 1046
E: 1579.661864 0003 003a 31
E: 1579.661865 0003 0030 126
E: 1579.661868 0003 0000 1046
E: 1579.661868 0003 0018 31
E: 1579.661869 0000 0000 0
E: 1579.667568 0003 003a 33
E: 1579.667569 0003 0030 180
E: 1579.667573 0003 0018 33
E: 1579.667573 0000 0000 0
E: 1579.673283 0003 003a 34
E: 1579.673285 0003 0018 34
E: 1579.673285 0000 0000 0
E: 1579.679026 0003 0036 1336
E: 1579.679028 0003 003a 37
E: 1579.679031 0003 0001 1336
E: 1579.679032 0003 0018 37
E: 1579.679043 0000 0000 0
E: 1579.684676 0003 0035 1047
E: 1579.684677 0003 003a 38
E: 1579.684680 0003 0000 1047
E: 1579.684681 0003 0018 38
E: 1579.684681 0000 0000 0
E: 1579.690540 0003 003a 41
E: 1579.690546 0003 0018 41
E: 1579.690546 0000 0000 0
E: 1579.696231 0003 0035 1046
E: 1579.696233 0003 003a 38
E: 1579.696236 0003 0000 1046
E: 1579.696237 0003 0018 38
E: 1579.696237 0000 0000 0
E: 1579.701856 0003 003a 40
E: 1579.701860 0003 0018 40
E: 1579.701861 0000 0000 0
E: 1579.719291 0003 003a 41
E: 1579.719296 0003 0018 41
E: 1579.719297 0000 0000 0
E: 1579.725040 0003 003a 40
E: 1579.725045 0003 0018 40
E: 1579.725045 0000 0000 0
E: 1579.730646 0003 0035 1045
E: 1579.730648 0003 003a 39
E: 1579.730650 0003 0000 1045
E: 1579.730651 0003 0018 39
E: 1579.730652 0000 0000 0
E: 1579.736475 0003 003a 40
E: 1579.736479 0003 0018 40
E: 1579.736479 0000 0000 0
E: 1579.742253 0003 003a 39
E: 1579.742258 0003 0018 39
E: 1579.742258 0000 0000 0
E: 1579.753745 0003 0036 1337
E: 1579.753747 0003 003a 40
E: 1579.753750 0003 0001 1337
E: 1579.753751 0003 0018 40
E: 1579.753751 0000 0000 0
E: 1579.760716 0003 0035 1044
E: 1579.760718 0003 003a 43
E: 1579.760720 0003 0000 1044
E: 1579.760721 0003 0018 43
E: 1579.760722 0000 0000 0
E: 1579.767805 0003 003a 44
E: 1579.767807 0003 0030 220
E: 1579.767810 0003 0018 44
E: 1579.767811 0000 0000 0
E: 1579.775207 0003 0035 1043
E: 1579.775209 0003 003a 40
E: 1579.775209 0003 0030 180
E: 1579.775211 0003 002f 1
E: 1579.775211 0003 0039 250
E: 1579.775212 0003 0035 1390
E: 1579.775213 0003 0036 1086
E: 1579.775213 0003 003a 26
E: 1579.775214 0003 0030 180
E: 1579.775226 0001 0145 0
E: 1579.775226 0001 014d 1
E: 1579.775227 0003 0000 1043
E: 1579.775227 0003 0018 40
E: 1579.775227 0000 0000 0
E: 1579.782361 0003 002f 0
E: 1579.782363 0003 003a 42
E: 1579.782363 0003 0030 220
E: 1579.782365 0003 002f 1
E: 1579.782366 0003 003a 29
E: 1579.782380 0003 0018 42
E: 1579.782380 0000 0000 0
E: 1579.789451 0003 002f 0
E: 1579.789453 0003 0035 1042
E: 1579.789453 0003 0036 1336
E: 1579.789456 0003 002f 1
E: 1579.789456 0003 003a 31
E: 1579.789459 0003 0000 1042
E: 1579.789460 0003 0001 1336
E: 1579.789471 0000 0000 0
E: 1579.796497 0003 002f 0
E: 1579.796499 0003 003a 44
E: 1579.796501 0003 002f 1
E: 1579.796501 0003 003a 34
E: 1579.796505 0003 0018 44
E: 1579.796505 0000 0000 0
E: 1579.804220 0003 002f 0
E: 1579.804221 0003 0035 1041
E: 1579.804221 0003 003a 43
E: 1579.804223 0003 002f 1
E: 1579.804223 0003 0035 1391
E: 1579.804224 0003 0036 1087
E: 1579.804225 0003 003a 33
E: 1579.804227 0003 0000 1041
E: 1579.804228 0003 0018 43
E: 1579.804228 0000 0000 0
E: 1579.811201 0003 003a 36
E: 1579.811216 0000 0000 0
E: 1579.818530 0003 002f 0
E: 1579.818532 0003 003a 44
E: 1579.818534 0003 002f 1
E: 1579.818535 0003 003a 35
E: 1579.818549 0003 0018 44
E: 1579.818549 0000 0000 0
E: 1579.825587 0003 002f 0
E: 1579.825588 0003 0035 1040
E: 1579.825589 0003 003a 45
E: 1579.825591 0003 002f 1
E: 1579.825592 0003 0036 1088
E: 1579.825592 0003 003a 37
E: 1579.825605 0003 0000 1040
E: 1579.825606 0003 0018 45
E: 1579.825606 0000 0000 0
E: 1579.832679 0003 002f 0
E: 1579.832681 0003 003a 44
E: 1579.832683 0003 002f 1
E: 1579.832683 0003 0035 1392
E: 1579.832684 0003 003a 39
E: 1579.832687 0003 0018 44
E: 1579.832688 0000 0000 0
E: 1579.839647 0003 002f 0
E: 1579.839648 0003 003a 46
E: 1579.839651 0003 002f 1
E: 1579.839651 0003 003a 38
E: 1579.839654 0003 0018 46
E: 1579.839655 0000 0000 0
E: 1579.846739 0003 002f 0
E: 1579.846740 0003 003a 45
E: 1579.846742 0003 002f 1
E: 1579.846743 0003 0036 1089
E: 1579.846743 0003 003a 40
E: 1579.846746 0003 0018 45
E: 1579.846747 0000 0000 0
E: 1579.853775 0003 002f 0
E: 1579.853776 0003 0035 1039
E: 1579.853777 0003 003a 44
E: 1579.853779 0003 002f 1
E: 1579.853779 0003 003a 41
E: 1579.853782 0003 0000 1039
E: 1579.853783 0003 0018 44
E: 1579.853783 0000 0000 0
E: 1579.860843 0003 002f 0
E: 1579.860845 0003 003a 46
E: 1579.860847 0003 002f 1
E: 1579.860847 0003 0036 1090
E: 1579.860850 0003 0018 46
E: 1579.860851 0000 0000 0
E: 1579.868029 0003 002f 0
E: 1579.868030 0003 003a 48
E: 1579.868031 0003 002f 1
E: 1579.868031 0003 0035 1393
E: 1579.868032 0003 003a 39
E: 1579.868035 0003 0018 48
E: 1579.868035 0000 0000 0
E: 1579.874950 0003 002f 0
E: 1579.874952 0003 003a 47
E: 1579.874952 0003 0030 254
E: 1579.874954 0003 002f 1
E: 1579.874954 0003 003a 40
E: 1579.874958 0003 0018 47
E: 1579.874959 0000 0000 0
E: 1579.881854 0001 0110 1
E: 1579.881859 0000 0000 0
E: 1579.889115 0003 002f 0
E: 1579.889116 0003 003a 48
E: 1579.889117 0003 002f 1
E: 1579.889117 0003 003a 38
E: 1579.889118 0003 0018 48
E: 1579.889119 0000 0000 0
E: 1579.896239 0003 002f 0
E: 1579.896241 0003 003a 50
E: 1579.896243 0003 002f 1
E: 1579.896243 0003 0036 1091
E: 1579.896244 0003 003a 40
E: 1579.896258 0003 0018 50
E: 1579.896258 0000 0000 0
E: 1579.903411 0003 002f 0
E: 1579.903413 0003 0036 1335
E: 1579.903413 0003 003a 48
E: 1579.903415 0003 002f 1
E: 1579.903416 0003 0035 1394
E: 1579.903416 0003 003a 39
E: 1579.903430 0003 0001 1335
E: 1579.903430 0003 0018 48
E: 1579.903431 0000 0000 0
E: 1579.911719 0003 002f 0
E: 1579.911720 0003 003a 52
E: 1579.911721 0003 0030 286
E: 1579.911723 0003 002f 1
E: 1579.911723 0003 003a 41
E: 1579.911726 0003 0018 52
E: 1579.911738 0000 0000 0
E: 1579.920087 0003 002f 0
E: 1579.920089 0003 0035 1040
E: 1579.920090 0003 003a 54
E: 1579.920092 0003 002f 1
E: 1579.920092 0003 003a 42
E: 1579.920106 0003 0000 1040
E: 1579.920107 0003 0018 54
E: 1579.920107 0000 0000 0
E: 1579.928307 0003 002f 0
E: 1579.928308 0003 0035 1041
E: 1579.928308 0003 0036 1334
E: 1579.928311 0003 002f 1
E: 1579.928311 0003 0036 1092
E: 1579.928312 0003 003a 38
E: 1579.928315 0003 0000 1041
E: 1579.928315 0003 0001 1334
E: 1579.928326 0000 0000 0
E: 1579.936732 0003 002f 0
E: 1579.936734 0003 0035 1042
E: 1579.936734 0003 0036 1333
E: 1579.936735 0003 003a 55
E: 1579.936737 0003 002f 1
E: 1579.936737 0003 003a 39
E: 1579.936740 0003 0000 1042
E: 1579.936741 0003 0001 1333
E: 1579.936741 0003 0018 55
E: 1579.936752 0000 0000 0
E: 1579.944978 0003 002f 0
E: 1579.944980 0003 0035 1043
E: 1579.944981 0003 0036 1332
E: 1579.944983 0003 002f 1
E: 1579.944983 0003 0035 1395
E: 1579.944984 0003 003a 37
E: 1579.944987 0003 0000 1043
E: 1579.944988 0003 0001 1332
E: 1579.944989 0000 0000 0
E: 1579.953395 0003 002f 0
E: 1579.953396 0003 0035 1045
E: 1579.953397 0003 0036 1331
E: 1579.953397 0003 003a 54
E: 1579.953399 0003 002f 1
E: 1579.953400 0003 003a 40
E: 1579.953403 0003 0000 1045
E: 1579.953403 0003 0001 1331
E: 1579.953415 0003 0018 54
E: 1579.953415 0000 0000 0
E: 1579.961667 0003 002f 0
E: 1579.961669 0003 0035 1046
E: 1579.961670 0003 0036 1330
E: 1579.961670 0003 003a 55
E: 1579.961673 0003 002f 1
E: 1579.961673 0003 003a 41
E: 1579.961676 0003 0000 1046
E: 1579.961677 0003 0001 1330
E: 1579.961687 0003 0018 55
E: 1579.961688 0000 0000 0
E: 1579.970132 0003 002f 0
E: 1579.970134 0003 0035 1047
E: 1579.970137 0003 002f 1
E: 1579.970137 0003 0036 1093
E: 1579.970138 0003 003a 38
E: 1579.970151 0003 0000 1047
E: 1579.970152 0000 0000 0
E: 1579.978400 0003 002f 0
E: 1579.978402 0003 0035 1048
E: 1579.978403 0003 0036 1329
E: 1579.978404 0003 003a 56
E: 1579.978406 0003 002f 1
E: 1579.978407 0003 003a 37
E: 1579.978420 0003 0000 1048
E: 1579.978420 0003 0001 1329
E: 1579.978420 0003 0018 56
E: 1579.978421 0000 0000 0
E: 1579.987050 0003 002f 0
E: 1579.987052 0003 0035 1049
E: 1579.987052 0003 0036 1328
E: 1579.987054 0003 002f 1
E: 1579.987055 0003 0035 1396
E: 1579.987055 0003 003a 41
E: 1579.987056 0003 0030 220
E: 1579.987069 0003 0000 1049
E: 1579.987069 0003 0001 1328
E: 1579.987069 0000 0000 0
E: 1579.995565 0003 002f 0
E: 1579.995567 0003 0035 1050
E: 1579.995568 0003 0036 1327
E: 1579.995568 0003 003a 54
E: 1579.995571 0003 002f 1
E: 1579.995571 0003 003a 36
E: 1579.995574 0003 0000 1050
E: 1579.995574 0003 0001 1327
E: 1579.995575 0003 0018 54
E: 1579.995586 0000 0000 0
E: 1580.004176 0003 002f 0
E: 1580.004177 0003 0035 1051
E: 1580.004179 0003 002f 1
E: 1580.004179 0003 0036 1092
E: 1580.004180 0003 003a 38
E: 1580.004182 0003 0000 1051
E: 1580.004183 0000 0000 0
E: 1580.012905 0003 002f 0
E: 1580.012906 0003 0035 1052
E: 1580.012907 0003 0036 1326
E: 1580.012907 0003 003a 52
E: 1580.012909 0003 002f 1
E: 1580.012909 0003 0035 1397
E: 1580.012910 0003 0036 1091
E: 1580.012910 0003 003a 37
E: 1580.012913 0003 0000 1052
E: 1580.012914 0003 0001 1326
E: 1580.012914 0003 0018 52
E: 1580.012915 0000 0000 0
E: 1580.025170 0003 002f 0
E: 1580.025188 0003 003a 54
E: 1580.025190 0003 002f 1
E: 1580.025190 0003 0035 1399
E: 1580.025191 0003 0036 1089
E: 1580.025191 0003 003a 39
E: 1580.025191 0003 0030 180
E: 1580.025192 0001 0110 0
E: 1580.025193 0003 0018 54
E: 1580.025194 0000 0000 0
E: 1580.031795 0003 002f 0
E: 1580.031796 0003 0035 1053
E: 1580.031797 0003 003a 53
E: 1580.031799 0003 002f 1
E: 1580.031800 0003 0035 1403
E: 1580.031800 0003 0036 1082
E: 1580.031801 0003 003a 37
E: 1580.031804 0003 0000 1053
E: 1580.031804 0003 0018 53
E: 1580.031805 0000 0000 0
E: 1580.039031 0003 002f 0
E: 1580.039032 0003 0035 1054
E: 1580.039033 0003 0036 1325
E: 1580.039035 0003 002f 1
E: 1580.039035 0003 0035 1413
E: 1580.039036 0003 0036 1069
E: 1580.039036 0003 003a 38
E: 1580.039038 0003 0000 1054
E: 1580.039038 0003 0001 1325
E: 1580.039038 0000 0000 0
E: 1580.045780 0003 002f 0
E: 1580.045781 0003 003a 52
E: 1580.045783 0003 002f 1
E: 1580.045783 0003 0035 1425
E: 1580.045783 0003 0036 1050
E: 1580.045784 0003 0030 126
E: 1580.045787 0003 0018 52
E: 1580.045788 0000 0000 0
E: 1580.052994 0003 002f 0
E: 1580.052995 0003 0035 1055
E: 1580.052996 0003 003a 51
E: 1580.052998 0003 002f 1
E: 1580.052998 0003 0035 1436
E: 1580.052998 0003 0036 1033
E: 1580.052999 0003 003a 35
E: 1580.052999 0003 0030 180
E: 1580.053022 0003 0000 1055
E: 1580.053022 0003 0018 51
E: 1580.053023 0000 0000 0
E: 1580.060035 0003 002f 0
E: 1580.060036 0003 003a 53
E: 1580.060038 0003 002f 1
E: 1580.060038 0003 0035 1445
E: 1580.060049 0003 0036 1022
E: 1580.060051 0003 0018 53
E: 1580.060051 0000 0000 0
E: 1580.060551 0003 002f 0
E: 1580.060551 0003 0039 -1
E: 1580.060551 0003 002f 1
E: 1580.060551 0003 0039 -1
E: 1580.060551 0003 002f 2
E: 1580.060551 0003 0039 -1
E: 1580.060551 0003 002f 3
E: 1580.060551 0003 0039 -1
E: 1580.060551 0003 002f 4
E: 1580.060551 0003 0039 -1
E: 1580.060551 0003 002f 5
E: 1580.060551 0003 0039 -1
E: 1580.060551 0003 002f 6
E: 1580.060551 0003 0039 -1
E: 1580.060551 0003 002f 7
E: 1580.060551 0003 0039 -1
E: 1580.060551 0003 002f 8
E: 1580.060551 0003 0039 -1
E: 1580.060551 0003 002f 9
E: 1580.060551 0003 0039 -1
