# device: Atmel maXTouch Touchpad
# bit: 0B 00 00 00 00 00 00 00
# key: 00 00 00 00 00 00 00 00 00 00 00 00 00 00 00 00 00 00 00 00 00 00 00 00 00 00 00 00 00 00 00 00 00 00 01 00 00 00 00 00 20 E5 00 00 00 00 00 00 00 00 00 00 00 00 00 00 00 00 00 00 00 00 00 00 00 00 00 00 00 00 00 00 00 00 00 00 00 00 00 00 00 00 00 00 00 00 00 00 00 00 00 00 00 00 00 00
# rel: 00 00 00 00 00 00 00 00
# abs: 03 00 00 01 00 80 61 06
# led: 00 00 00 00 00 00 00 00
# prp: 05 00 00 00 00 00 00 00
# absinfo: 0 0 2039 0 0 20
# absinfo: 1 0 1359 0 0 20
# absinfo: 24 0 255 0 0 0
# absinfo: 47 0 9 0 0 0
# absinfo: 48 0 1878 0 0 0
# absinfo: 53 0 2039 0 0 20
# absinfo: 54 0 1359 0 0 20
# absinfo: 57 0 65535 0 0 0
# absinfo: 58 0 255 0 0 0
E: 299.468080 0003 002f 0
E: 299.468080 0003 0030 182
E: 299.468080 0003 0031 0
E: 299.468080 0003 0032 0
E: 299.468080 0003 0033 0
E: 299.468080 0003 0034 0
E: 299.468080 0003 0035 1390
E: 299.468080 0003 0036 952
E: 299.468080 0003 0037 0
E: 299.468080 0003 0038 0
E: 299.468080 0003 0039 146
E: 299.468080 0003 003a 25
E: 299.468080 0003 003b 0
E: 299.468080 0003 002f 1
E: 299.468080 0003 0039 -1
E: 299.468080 0003 002f 2
E: 299.468080 0003 0039 -1
E: 299.468080 0003 002f 3
E: 299.468080 0003 0039 -1
E: 299.468080 0003 002f 4
E: 299.468080 0003 0039 -1
E: 299.468080 0003 002f 5
E: 299.468080 0003 0039 -1
E: 299.468080 0003 002f 6
E: 299.468080 0003 0039 -1
E: 299.468080 0003 002f 7
E: 299.468080 0003 0039 -1
E: 299.468080 0003 002f 8
E: 299.468080 0003 0039 -1
E: 299.468080 0003 002f 9
E: 299.468080 0003 0039 -1
E: 299.468080 0003 002f 0
E: 299.468080 0001 0145 1
E: 299.468080 0001 014a 1
E: 299.468080 0000 0000 0
E: 299.479480 0003 003a 26
E: 299.479488 0003 0018 26
E: 299.479490 0000 0000 0
E: 299.511126 0003 0035 1389
E: 299.511129 0003 0036 951
E: 299.511136 0003 0000 1389
E: 299.511138 0003 0001 951
E: 299.511141 0000 0000 0
E: 299.526905 0003 0035 1387
E: 299.526908 0003 0036 948
E: 299.526910 0003 003a 32
E: 299.526912 0003 0030 224
E: 299.526917 0003 0000 1387
E: 299.526919 0003 0001 948
E: 299.526921 0003 0018 32
E: 299.526923 0000 0000 0
E: 299.542713 0003 0035 1381
E: 299.542716 0003 0036 936
E: 299.542718 0003 003a 30
E: 299.542725 0003 0000 1381
E: 299.542727 0003 0001 936
E: 299.542729 0003 0018 30
E: 299.542731 0000 0000 0
E: 299.558507 0003 0035 1353
E: 299.558510 0003 0036 883
E: 299.558512 0003 003a 28
E: 299.558515 0003 0030 182
E: 299.558520 0003 0000 1353
E: 299.558522 0003 0001 883
E: 299.558524 0003 0018 28
E: 299.558526 0000 0000 0
E: 299.574333 0003 0035 1344
E: 299.574336 0003 0036 847
E: 299.574339 0003 003a 29
E: 299.574341 0003 0030 224
E: 299.574349 0003 0000 1344
E: 299.574351 0003 0001 847
E: 299.574354 0003 0018 29
E: 299.574357 0000 0000 0
E: 299.590108 0003 0035 1331
E: 299.590111 0003 0036 805
E: 299.590113 0003 003a 28
E: 299.590121 0003 0000 1331
E: 299.590123 0003 0001 805
E: 299.590124 0003 0018 28
E: 299.590126 0000 0000 0
E: 299.605928 0003 0035 1321
E: 299.605931 0003 0036 780
E: 299.605933 0003 003a 29
E: 299.605936 0003 0030 258
E: 299.605941 0003 0000 1321
E: 299.605943 0003 0001 780
E: 299.605945 0003 0018 29
E: 299.605947 0000 0000 0
E: 299.621777 0003 0035 1316
E: 299.621781 0003 0036 766
E: 299.621785 0003 003a 26
E: 299.621795 0003 0000 1316
E: 299.621798 0003 0001 766
E: 299.621802 0003 0018 26
E: 299.621804 0000 0000 0
E: 299.637566 0003 0035 1317
E: 299.637570 0003 0036 758
E: 299.637573 0003 003a 29
E: 299.637582 0003 0000 1317
E: 299.637584 0003 0001 758
E: 299.637586 0003 0018 29
E: 299.637589 0000 0000 0
E: 299.653390 0003 0035 1313
E: 299.653395 0003 0036 748
E: 299.653397 0003 003a 30
E: 299.653406 0003 0000 1313
E: 299.653408 0003 0001 748
E: 299.653410 0003 0018 30
E: 299.653411 0000 0000 0
E: 299.669584 0003 0035 1311
E: 299.669588 0003 0036 744
E: 299.669590 0003 003a 32
E: 299.669596 0003 0000 1311
E: 299.669597 0003 0001 744
E: 299.669600 0003 0018 32
E: 299.669602 0000 0000 0
E: 299.684971 0003 0035 1310
E: 299.684974 0003 0036 740
E: 299.684976 0003 003a 28
E: 299.684982 0003 0000 1310
E: 299.684984 0003 0001 740
E: 299.684986 0003 0018 28
E: 299.684987 0000 0000 0
E: 299.699661 0003 0035 1308
E: 299.699665 0003 0036 738
E: 299.699668 0003 0030 224
E: 299.699674 0003 0000 1308
E: 299.699676 0003 0001 738
E: 299.699680 0000 0000 0
E: 299.716637 0003 0035 1305
E: 299.716642 0003 0036 734
E: 299.716645 0003 003a 29
E: 299.716653 0003 0000 1305
E: 299.716655 0003 0001 734
E: 299.716657 0003 0018 29
E: 299.716660 0000 0000 0
E: 299.732389 0003 0035 1303
E: 299.732393 0003 0036 730
E: 299.732395 0003 003a 30
E: 299.732401 0003 0000 1303
E: 299.732403 0003 0001 730
E: 299.732405 0003 0018 30
E: 299.732407 0000 0000 0
E: 299.748214 0003 0035 1301
E: 299.748218 0003 0036 727
E: 299.748220 0003 003a 31
E: 299.748226 0003 0000 1301
E: 299.748228 0003 0001 727
E: 299.748230 0003 0018 31
E: 299.748232 0000 0000 0
E: 299.764055 0003 0035 1300
E: 299.764060 0003 0036 724
E: 299.764063 0003 003a 29
E: 299.764071 0003 0000 1300
E: 299.764074 0003 0001 724
E: 299.764076 0003 0018 29
E: 299.764079 0000 0000 0
E: 299.779869 0003 0035 1298
E: 299.779873 0003 0036 721
E: 299.779876 0003 003a 30
E: 299.779886 0003 0000 1298
E: 299.779888 0003 0001 721
E: 299.779892 0003 0018 30
E: 299.779895 0000 0000 0
E: 299.795631 0003 0035 1297
E: 299.795634 0003 0036 719
E: 299.795636 0003 003a 31
E: 299.795642 0003 0000 1297
E: 299.795644 0003 0001 719
E: 299.795646 0003 0018 31
E: 299.795648 0000 0000 0
E: 299.811461 0003 0035 1296
E: 299.811464 0003 0036 718
E: 299.811466 0003 003a 28
E: 299.811472 0003 0000 1296
E: 299.811474 0003 0001 718
E: 299.811476 0003 0018 28
E: 299.811478 0000 0000 0
E: 299.827315 0003 0035 1295
E: 299.827319 0003 0036 716
E: 299.827321 0003 003a 32
E: 299.827328 0003 0000 1295
E: 299.827330 0003 0001 716
E: 299.827332 0003 0018 32
E: 299.827334 0000 0000 0
E: 299.843076 0003 0035 1294
E: 299.843085 0003 0000 1294
E: 299.843089 0000 0000 0
E: 299.857741 0003 0036 715
E: 299.857744 0003 003a 33
E: 299.857752 0003 0001 715
E: 299.857754 0003 0018 33
E: 299.857756 0000 0000 0
E: 299.874704 0003 0035 1293
E: 299.874707 0003 0036 713
E: 299.874709 0003 003a 30
E: 299.874716 0003 0000 1293
E: 299.874718 0003 0001 713
E: 299.874720 0003 0018 30
E: 299.874722 0000 0000 0
E: 299.890537 0003 0036 712
E: 299.890541 0003 003a 32
E: 299.890543 0003 0030 290
E: 299.890549 0003 0001 712
E: 299.890552 0003 0018 32
E: 299.890553 0000 0000 0
E: 299.906772 0003 0036 710
E: 299.906777 0003 003a 30
E: 299.906780 0003 0030 258
E: 299.906788 0003 0001 710
E: 299.906791 0003 0018 30
E: 299.906794 0000 0000 0
E: 299.922141 0003 0035 1292
E: 299.922145 0003 0036 708
E: 299.922148 0003 003a 33
E: 299.922151 0003 0030 290
E: 299.922160 0003 0000 1292
E: 299.922163 0003 0001 708
E: 299.922165 0003 0018 33
E: 299.922168 0000 0000 0
E: 299.937947 0003 0036 707
E: 299.937951 0003 003a 31
E: 299.937953 0003 0030 258
E: 299.937959 0003 0001 707
E: 299.937962 0003 0018 31
E: 299.937964 0000 0000 0
E: 299.953732 0003 0036 705
E: 299.953735 0003 003a 36
E: 299.953737 0003 0030 290
E: 299.953744 0003 0001 705
E: 299.953746 0003 0018 36
E: 299.953748 0000 0000 0
E: 299.969557 0003 0035 1291
E: 299.969560 0003 0036 704
E: 299.969562 0003 003a 35
E: 299.969564 0003 0030 258
E: 299.969570 0003 0000 1291
E: 299.969572 0003 0001 704
E: 299.969574 0003 0018 35
E: 299.969576 0000 0000 0
E: 300.001184 0003 0036 703
E: 300.001187 0003 003a 31
E: 300.001189 0003 0030 224
E: 300.001196 0003 0001 703
E: 300.001198 0003 0018 31
E: 300.001199 0000 0000 0
E: 300.015803 0003 0035 1290
E: 300.015807 0003 003a 34
E: 300.015809 0003 0030 258
E: 300.015814 0003 0000 1290
E: 300.015816 0003 0018 34
E: 300.015818 0000 0000 0
E: 300.043994 0003 003a 35
E: 300.043997 0003 0030 290
E: 300.044003 0003 0018 35
E: 300.044005 0000 0000 0
E: 300.049572 0003 003a 33
E: 300.049575 0003 0030 224
E: 300.049581 0003 0018 33
E: 300.049583 0000 0000 0
E: 300.060077 0003 0035 1289
E: 300.060080 0003 003a 32
E: 300.060084 0003 002f 1
E: 300.060085 0003 0039 147
E: 300.060088 0003 0035 1391
E: 300.060090 0003 0036 78
E: 300.060092 0003 003a 31
E: 300.060095 0001 0145 0
E: 300.060097 0001 014d 1
E: 300.060100 0003 0000 1289
E: 300.060103 0003 0018 32
E: 300.060105 0000 0000 0
E: 300.080961 0003 002f 0
E: 300.080963 0003 003a 36
E: 300.080965 0003 0030 290
E: 300.080971 0003 002f 1
E: 300.080972 0003 003a 32
E: 300.080980 0003 0018 36
E: 300.080982 0000 0000 0
E: 300.084731 0001 0110 1
E: 300.084739 0000 0000 0
E: 300.096764 0003 002f 0
E: 300.096765 0003 0036 704
E: 300.096767 0003 003a 34
E: 300.096769 0003 0030 224
E: 300.096775 0003 002f 1
E: 300.096776 0003 003a 34
E: 300.096783 0003 0001 704
E: 300.096785 0003 0018 34
E: 300.096787 0000 0000 0
E: 300.113009 0003 002f 0
E: 300.113011 0003 0035 1288
E: 300.113018 0003 002f 1
E: 300.113019 0003 0036 79
E: 300.113026 0003 0000 1288
E: 300.113029 0000 0000 0
E: 300.129262 0003 002f 0
E: 300.129264 0003 0035 1287
E: 300.129266 0003 0036 705
E: 300.129268 0003 003a 33
E: 300.129274 0003 002f 1
E: 300.129275 0003 003a 33
E: 300.129281 0003 0000 1287
E: 300.129283 0003 0001 705
E: 300.129285 0003 0018 33
E: 300.129287 0000 0000 0
E: 300.159975 0003 002f 0
E: 300.159977 0003 0035 1286
E: 300.159979 0003 0036 706
E: 300.159981 0003 003a 34
E: 300.159988 0003 002f 1
E: 300.159989 0003 003a 35
E: 300.159991 0003 0030 290
E: 300.159997 0003 0000 1286
E: 300.159999 0003 0001 706
E: 300.160001 0003 0018 34
E: 300.160003 0000 0000 0
E: 300.175709 0003 002f 0
E: 300.175711 0003 0035 1285
E: 300.175712 0003 0036 707
E: 300.175714 0003 003a 35
E: 300.175716 0003 0030 258
E: 300.175721 0003 002f 1
E: 300.175722 0003 0035 1390
E: 300.175724 0003 0036 81
E: 300.175726 0003 003a 34
E: 300.175727 0003 0030 258
E: 300.175734 0003 0000 1285
E: 300.175735 0003 0001 707
E: 300.175737 0003 0018 35
E: 300.175739 0000 0000 0
E: 300.191469 0003 002f 0
E: 300.191470 0003 0035 1284
E: 300.191472 0003 0036 709
E: 300.191474 0003 003a 34
E: 300.191476 0003 0030 224
E: 300.191480 0003 002f 1
E: 300.191481 0003 0035 1389
E: 300.191483 0003 0036 82
E: 300.191485 0003 003a 36
E: 300.191487 0003 0030 290
E: 300.191493 0003 0000 1284
E: 300.191494 0003 0001 709
E: 300.191496 0003 0018 34
E: 300.191498 0000 0000 0
E: 300.207274 0003 002f 0
E: 300.207276 0003 0035 1282
E: 300.207278 0003 0036 711
E: 300.207284 0003 002f 1
E: 300.207285 0003 0035 1388
E: 300.207287 0003 0036 85
E: 300.207294 0003 0000 1282
E: 300.207296 0003 0001 711
E: 300.207299 0000 0000 0
E: 300.223083 0003 002f 0
E: 300.223085 0003 0035 1281
E: 300.223087 0003 0036 712
E: 300.223089 0003 003a 31
E: 300.223094 0003 002f 1
E: 300.223095 0003 0035 1386
E: 300.223097 0003 0036 89
E: 300.223098 0003 003a 34
E: 300.223105 0003 0000 1281
E: 300.223107 0003 0001 712
E: 300.223109 0003 0018 31
E: 300.223111 0000 0000 0
E: 300.238874 0003 002f 0
E: 300.238876 0003 0035 1279
E: 300.238878 0003 0036 715
E: 300.238880 0003 003a 34
E: 300.238881 0003 0030 258
E: 300.238886 0003 002f 1
E: 300.238887 0003 0035 1384
E: 300.238889 0003 0036 96
E: 300.238891 0003 003a 36
E: 300.238897 0003 0000 1279
E: 300.238899 0003 0001 715
E: 300.238901 0003 0018 34
E: 300.238903 0000 0000 0
E: 300.254700 0003 002f 0
E: 300.254701 0003 0035 1277
E: 300.254704 0003 0036 717
E: 300.254705 0003 003a 33
E: 300.254711 0003 002f 1
E: 300.254712 0003 0035 1381
E: 300.254714 0003 0036 108
E: 300.254716 0003 003a 35
E: 300.254722 0003 0000 1277
E: 300.254724 0003 0001 717
E: 300.254726 0003 0018 33
E: 300.254728 0000 0000 0
E: 300.270470 0003 002f 0
E: 300.270472 0003 0035 1276
E: 300.270473 0003 0036 720
E: 300.270475 0003 003a 32
E: 300.270480 0003 002f 1
E: 300.270481 0003 0035 1376
E: 300.270483 0003 0036 137
E: 300.270485 0003 003a 33
E: 300.270487 0003 0030 318
E: 300.270492 0003 0000 1276
E: 300.270494 0003 0001 720
E: 300.270496 0003 0018 32
E: 300.270498 0000 0000 0
E: 300.286319 0003 002f 0
E: 300.286321 0003 0035 1275
E: 300.286324 0003 0036 723
E: 300.286327 0003 003a 33
E: 300.286333 0003 002f 1
E: 300.286334 0003 0035 1370
E: 300.286337 0003 0036 178
E: 300.286339 0003 003a 35
E: 300.286342 0003 0030 258
E: 300.286349 0003 0000 1275
E: 300.286352 0003 0001 723
E: 300.286354 0003 0018 33
E: 300.286356 0000 0000 0
E: 300.302035 0003 002f 0
E: 300.302037 0003 0035 1271
E: 300.302039 0003 0036 728
E: 300.302041 0003 003a 34
E: 300.302043 0003 0030 224
E: 300.302047 0003 002f 1
E: 300.302049 0003 0035 1367
E: 300.302050 0003 0036 209
E: 300.302052 0003 003a 37
E: 300.302054 0003 0030 290
E: 300.302065 0003 0000 1271
E: 300.302067 0003 0001 728
E: 300.302069 0003 0018 34
E: 300.302071 0000 0000 0
E: 300.317927 0003 002f 0
E: 300.317929 0003 0035 1264
E: 300.317931 0003 0036 742
E: 300.317933 0003 003a 35
E: 300.317935 0003 0030 258
E: 300.317940 0003 002f 1
E: 300.317941 0003 0035 1365
E: 300.317942 0003 0036 252
E: 300.317950 0003 0000 1264
E: 300.317952 0003 0001 742
E: 300.317954 0003 0018 35
E: 300.317956 0000 0000 0
E: 300.334160 0003 002f 0
E: 300.334163 0003 0035 1259
E: 300.334166 0003 0036 753
E: 300.334170 0003 0030 290
E: 300.334177 0003 002f 1
E: 300.334179 0003 0036 281
E: 300.334181 0003 003a 34
E: 300.334184 0003 0030 258
E: 300.334193 0003 0000 1259
E: 300.334196 0003 0001 753
E: 300.334200 0000 0000 0
E: 300.350688 0003 002f 0
E: 300.350690 0003 0035 1255
E: 300.350693 0003 0036 766
E: 300.350695 0003 003a 39
E: 300.350701 0003 002f 1
E: 300.350703 0003 0035 1362
E: 300.350705 0003 0036 301
E: 300.350707 0003 003a 36
E: 300.350715 0003 0000 1255
E: 300.350717 0003 0001 766
E: 300.350720 0003 0018 39
E: 300.350722 0000 0000 0
E: 300.365334 0003 002f 0
E: 300.365338 0003 0035 1252
E: 300.365341 0003 0036 775
E: 300.365350 0003 002f 1
E: 300.365352 0003 0035 1361
E: 300.365356 0003 003a 38
E: 300.365359 0003 0030 318
E: 300.365369 0003 0000 1252
E: 300.365371 0003 0001 775
E: 300.365375 0000 0000 0
E: 300.381155 0003 002f 0
E: 300.381157 0003 0035 1248
E: 300.381161 0003 0036 785
E: 300.381172 0003 002f 1
E: 300.381174 0003 0036 303
E: 300.381178 0003 003a 34
E: 300.381181 0003 0030 258
E: 300.381191 0003 0000 1248
E: 300.381194 0003 0001 785
E: 300.381198 0000 0000 0
E: 300.396889 0003 002f 0
E: 300.396892 0003 0035 1247
E: 300.396895 0003 0036 787
E: 300.396898 0003 003a 35
E: 300.396907 0003 002f 1
E: 300.396909 0003 003a 33
E: 300.396911 0003 0030 290
E: 300.396920 0003 0000 1247
E: 300.396922 0003 0001 787
E: 300.396925 0003 0018 35
E: 300.396928 0000 0000 0
E: 300.412845 0003 002f 0
E: 300.412847 0003 0035 1244
E: 300.412850 0003 0036 791
E: 300.412852 0003 003a 32
E: 300.412853 0003 0030 258
E: 300.412858 0003 002f 1
E: 300.412860 0003 0036 304
E: 300.412861 0003 003a 29
E: 300.412863 0003 0030 224
E: 300.412870 0003 0000 1244
E: 300.412872 0003 0001 791
E: 300.412874 0003 0018 32
E: 300.412876 0000 0000 0
E: 300.428586 0003 002f 0
E: 300.428589 0003 0036 792
E: 300.428591 0003 003a 37
E: 300.428594 0003 0030 290
E: 300.428599 0003 002f 1
E: 300.428601 0003 0036 305
E: 300.428603 0003 003a 34
E: 300.428604 0003 0030 258
E: 300.428612 0003 0001 792
E: 300.428614 0003 0018 37
E: 300.428616 0000 0000 0
E: 300.444394 0003 002f 0
E: 300.444398 0003 0035 1243
E: 300.444402 0003 0036 795
E: 300.444412 0003 002f 1
E: 300.444415 0003 0035 1362
E: 300.444417 0003 0036 306
E: 300.444419 0003 003a 32
E: 300.444422 0003 0030 224
E: 300.444435 0003 0000 1243
E: 300.444437 0003 0001 795
E: 300.444441 0000 0000 0
E: 300.460160 0003 002f 0
E: 300.460163 0003 0036 797
E: 300.460175 0003 002f 1
E: 300.460177 0003 003a 33
E: 300.460180 0003 0030 258
E: 300.460191 0003 0001 797
E: 300.460196 0000 0000 0
E: 300.476000 0003 002f 0
E: 300.476004 0003 0035 1242
E: 300.476006 0003 0036 798
E: 300.476016 0003 002f 1
E: 300.476018 0003 0036 307
E: 300.476020 0003 003a 35
E: 300.476029 0003 0000 1242
E: 300.476031 0003 0001 798
E: 300.476035 0000 0000 0
E: 300.491833 0003 002f 0
E: 300.491836 0003 0036 800
E: 300.491839 0003 003a 35
E: 300.491842 0003 0030 258
E: 300.491847 0003 002f 1
E: 300.491848 0003 0035 1363
E: 300.491851 0003 0036 308
E: 300.491853 0003 003a 33
E: 300.491855 0003 0030 224
E: 300.491864 0003 0001 800
E: 300.491866 0003 0018 35
E: 300.491869 0000 0000 0
E: 300.507543 0003 002f 0
E: 300.507545 0003 0036 801
E: 300.507548 0003 003a 37
E: 300.507550 0003 0030 290
E: 300.507554 0003 002f 1
E: 300.507556 0003 0035 1364
E: 300.507558 0003 0036 310
E: 300.507559 0003 003a 36
E: 300.507561 0003 0030 258
E: 300.507568 0003 0001 801
E: 300.507570 0003 0018 37
E: 300.507572 0000 0000 0
E: 300.523451 0003 002f 0
E: 300.523454 0003 0035 1241
E: 300.523456 0003 0036 803
E: 300.523458 0003 003a 34
E: 300.523460 0003 0030 258
E: 300.523464 0003 002f 1
E: 300.523465 0003 0035 1365
E: 300.523467 0003 0036 313
E: 300.523469 0003 003a 31
E: 300.523476 0003 0000 1241
E: 300.523478 0003 0001 803
E: 300.523480 0003 0018 34
E: 300.523482 0000 0000 0
E: 300.539571 0003 002f 0
E: 300.539574 0003 0036 805
E: 300.539576 0003 003a 37
E: 300.539578 0003 0030 290
E: 300.539584 0003 002f 1
E: 300.539585 0003 0035 1367
E: 300.539588 0003 0036 317
E: 300.539600 0003 0001 805
E: 300.539602 0003 0018 37
E: 300.539605 0000 0000 0
E: 300.556076 0003 002f 0
E: 300.556079 0003 0035 1240
E: 300.556083 0003 0036 806
E: 300.556085 0003 003a 35
E: 300.556088 0003 0030 258
E: 300.556097 0003 002f 1
E: 300.556099 0003 0035 1370
E: 300.556102 0003 0036 319
E: 300.556106 0003 003a 33
E: 300.556117 0003 0000 1240
E: 300.556120 0003 0001 806
E: 300.556123 0003 0018 35
E: 300.556126 0000 0000 0
E: 300.570800 0003 002f 0
E: 300.570804 0003 0036 808
E: 300.570806 0003 003a 36
E: 300.570809 0003 0030 290
E: 300.570815 0003 002f 1
E: 300.570817 0003 0035 1373
E: 300.570820 0003 0036 323
E: 300.570822 0003 003a 36
E: 300.570832 0003 0001 808
E: 300.570834 0003 0018 36
E: 300.570837 0000 0000 0
E: 300.586686 0003 002f 0
E: 300.586689 0003 0035 1239
E: 300.586692 0003 0036 811
E: 300.586696 0003 003a 34
E: 300.586698 0003 0030 258
E: 300.586705 0003 002f 1
E: 300.586707 0003 0035 1379
E: 300.586709 0003 0036 330
E: 300.586712 0003 003a 31
E: 300.586722 0003 0000 1239
E: 300.586725 0003 0001 811
E: 300.586729 0003 0018 34
E: 300.586732 0000 0000 0
E: 300.602460 0003 002f 0
E: 300.602463 0003 0036 813
E: 300.602465 0003 003a 37
E: 300.602470 0003 002f 1
E: 300.602471 0003 0035 1384
E: 300.602473 0003 0036 337
E: 300.602475 0003 003a 34
E: 300.602483 0003 0001 813
E: 300.602485 0003 0018 37
E: 300.602487 0000 0000 0
E: 300.618205 0003 002f 0
E: 300.618208 0003 0036 815
E: 300.618210 0003 003a 38
E: 300.618212 0003 0030 290
E: 300.618217 0003 002f 1
E: 300.618218 0003 0035 1385
E: 300.618220 0003 0036 340
E: 300.618222 0003 003a 33
E: 300.618230 0003 0001 815
E: 300.618232 0003 0018 38
E: 300.618234 0000 0000 0
E: 300.634016 0003 002f 0
E: 300.634019 0003 0036 817
E: 300.634021 0003 003a 37
E: 300.634026 0003 002f 1
E: 300.634027 0003 0035 1388
E: 300.634029 0003 0036 344
E: 300.634038 0003 0001 817
E: 300.634040 0003 0018 37
E: 300.634042 0000 0000 0
E: 300.649858 0003 002f 0
E: 300.649861 0003 0036 819
E: 300.649863 0003 003a 35
E: 300.649865 0003 0030 258
E: 300.649870 0003 002f 1
E: 300.649872 0003 0035 1390
E: 300.649873 0003 0036 347
E: 300.649876 0003 003a 31
E: 300.649884 0003 0001 819
E: 300.649886 0003 0018 35
E: 300.649888 0000 0000 0
E: 300.665608 0003 002f 0
E: 300.665611 0003 0036 821
E: 300.665613 0003 003a 36
E: 300.665615 0003 0030 290
E: 300.665620 0003 002f 1
E: 300.665621 0003 0035 1392
E: 300.665623 0003 0036 349
E: 300.665625 0003 003a 32
E: 300.665632 0003 0001 821
E: 300.665634 0003 0018 36
E: 300.665636 0000 0000 0
E: 300.681438 0003 002f 0
E: 300.681440 0003 0036 823
E: 300.681442 0003 003a 37
E: 300.681448 0003 002f 1
E: 300.681449 0003 0035 1393
E: 300.681451 0003 0036 351
E: 300.681453 0003 003a 34
E: 300.681460 0003 0001 823
E: 300.681462 0003 0018 37
E: 300.681464 0000 0000 0
E: 300.697184 0003 002f 0
E: 300.697188 0003 0036 824
E: 300.697191 0003 003a 38
E: 300.697195 0003 0030 318
E: 300.697203 0003 002f 1
E: 300.697204 0003 0035 1395
E: 300.697207 0003 0036 352
E: 300.697211 0003 003a 33
E: 300.697224 0003 0001 824
E: 300.697227 0003 0018 38
E: 300.697230 0000 0000 0
E: 300.713156 0003 002f 0
E: 300.713161 0003 0036 825
E: 300.713164 0003 003a 35
E: 300.713167 0003 0030 258
E: 300.713173 0003 002f 1
E: 300.713175 0003 0035 1397
E: 300.713178 0003 0036 354
E: 300.713191 0003 0001 825
E: 300.713193 0003 0018 35
E: 300.713196 0000 0000 0
E: 300.728923 0003 002f 0
E: 300.728926 0003 0036 826
E: 300.728928 0003 003a 36
E: 300.728933 0003 002f 1
E: 300.728935 0003 0035 1400
E: 300.728937 0003 0036 358
E: 300.728938 0003 003a 34
E: 300.728946 0003 0001 826
E: 300.728949 0003 0018 36
E: 300.728951 0000 0000 0
E: 300.746381 0003 002f 0
E: 300.746384 0003 0036 827
E: 300.746387 0003 003a 35
E: 300.746395 0003 002f 1
E: 300.746396 0003 0035 1406
E: 300.746398 0003 0036 364
E: 300.746400 0003 003a 32
E: 300.746410 0003 0001 827
E: 300.746412 0003 0018 35
E: 300.746414 0000 0000 0
E: 300.761812 0003 002f 0
E: 300.761814 0003 0036 829
E: 300.761821 0003 002f 1
E: 300.761822 0003 0035 1416
E: 300.761824 0003 0036 373
E: 300.761826 0003 003a 35
E: 300.761834 0003 0001 829
E: 300.761837 0000 0000 0
E: 300.778019 0003 002f 0
E: 300.778022 0003 0035 1240
E: 300.778024 0003 0036 831
E: 300.778027 0003 003a 32
E: 300.778029 0003 0030 224
E: 300.778034 0003 002f 1
E: 300.778036 0003 0035 1440
E: 300.778038 0003 0036 401
E: 300.778041 0003 003a 30
E: 300.778049 0003 0000 1240
E: 300.778052 0003 0001 831
E: 300.778054 0003 0018 32
E: 300.778057 0000 0000 0
E: 300.793813 0003 002f 0
E: 300.793816 0003 0036 832
E: 300.793819 0003 003a 36
E: 300.793823 0003 0030 290
E: 300.793829 0003 002f 1
E: 300.793831 0003 0035 1462
E: 300.793833 0003 0036 424
E: 300.793835 0003 003a 32
E: 300.793837 0003 0030 224
E: 300.793845 0003 0001 832
E: 300.793848 0003 0018 36
E: 300.793851 0000 0000 0
E: 300.813686 0003 002f 0
E: 300.813689 0003 0036 834
E: 300.813691 0003 003a 37
E: 300.813693 0003 0030 258
E: 300.813698 0003 002f 1
E: 300.813699 0003 0035 1486
E: 300.813701 0003 0036 445
E: 300.813702 0003 003a 29
E: 300.813704 0003 0030 258
E: 300.813711 0003 0001 834
E: 300.813713 0003 0018 37
E: 300.813715 0000 0000 0
E: 300.825538 0003 002f 0
E: 300.825541 0003 0036 835
E: 300.825543 0003 003a 39
E: 300.825546 0003 0030 290
E: 300.825551 0003 002f 1
E: 300.825552 0003 0035 1491
E: 300.825554 0003 0036 451
E: 300.825556 0003 003a 30
E: 300.825565 0003 0001 835
E: 300.825567 0003 0018 39
E: 300.825570 0000 0000 0
E: 300.849195 0003 002f 0
E: 300.849198 0003 0036 836
E: 300.849202 0003 003a 37
E: 300.849204 0003 0030 258
E: 300.849210 0003 002f 1
E: 300.849211 0003 0035 1495
E: 300.849213 0003 0036 455
E: 300.849215 0003 003a 29
E: 300.849227 0003 0001 836
E: 300.849229 0003 0018 37
E: 300.849232 0000 0000 0
E: 300.857556 0003 002f 0
E: 300.857560 0003 0036 837
E: 300.857563 0003 003a 36
E: 300.857565 0003 0030 290
E: 300.857572 0003 002f 1
E: 300.857573 0003 0035 1499
E: 300.857576 0003 0036 456
E: 300.857578 0003 003a 30
E: 300.857588 0003 0001 837
E: 300.857591 0003 0018 36
E: 300.857593 0000 0000 0
E: 300.873059 0003 002f 0
E: 300.873062 0003 0036 839
E: 300.873065 0003 0030 318
E: 300.873072 0003 002f 1
E: 300.873073 0003 0035 1501
E: 300.873076 0003 0036 457
E: 300.873079 0003 003a 33
E: 300.873092 0003 0001 839
E: 300.873096 0000 0000 0
E: 300.893643 0003 002f 0
E: 300.893646 0003 003a 37
E: 300.893649 0003 0030 290
E: 300.893655 0003 002f 1
E: 300.893656 0003 003a 29
E: 300.893667 0003 0018 37
E: 300.893669 0000 0000 0
E: 300.909385 0003 002f 0
E: 300.909389 0003 0036 840
E: 300.909392 0003 003a 35
E: 300.909400 0003 002f 1
E: 300.909402 0003 0035 1502
E: 300.909405 0003 0036 458
E: 300.909408 0003 003a 31
E: 300.909421 0003 0001 840
E: 300.909423 0003 0018 35
E: 300.909426 0000 0000 0
E: 300.924366 0003 002f 0
E: 300.924369 0003 0036 841
E: 300.924372 0003 003a 39
E: 300.924374 0003 0030 258
E: 300.924379 0003 002f 1
E: 300.924381 0003 0035 1503
E: 300.924385 0003 003a 30
E: 300.924396 0003 0001 841
E: 300.924400 0003 0018 39
E: 300.924402 0000 0000 0
E: 300.936200 0003 002f 0
E: 300.936203 0003 003a 42
E: 300.936205 0003 0030 318
E: 300.936211 0003 002f 1
E: 300.936213 0003 003a 29
E: 300.936221 0003 0018 42
E: 300.936224 0000 0000 0
E: 300.968288 0003 002f 0
E: 300.968291 0003 003a 40
E: 300.968298 0003 002f 1
E: 300.968299 0003 003a 27
E: 300.968301 0003 0030 224
E: 300.968303 0001 0110 0
E: 300.968310 0003 0018 40
E: 300.968312 0000 0000 0
E: 300.983620 0003 002f 0
E: 300.983623 0003 003a 39
E: 300.983626 0003 0030 290
E: 300.983632 0003 002f 1
E: 300.983634 0003 0035 1504
E: 300.983637 0003 003a 29
E: 300.983640 0003 0030 258
E: 300.983650 0003 0018 39
E: 300.983652 0000 0000 0
E: 300.999346 0003 002f 0
E: 300.999348 0003 003a 33
E: 300.999355 0003 002f 1
E: 300.999356 0003 003a 23
E: 300.999358 0003 0030 224
E: 300.999366 0003 0018 33
E: 300.999368 0000 0000 0
E: 301.015157 0003 002f 0
E: 301.015159 0003 0035 1241
E: 301.015162 0003 0036 840
E: 301.015164 0003 003a 35
E: 301.015171 0003 002f 1
E: 301.015173 0003 0035 1505
E: 301.015176 0003 003a 27
E: 301.015185 0003 0000 1241
E: 301.015187 0003 0001 840
E: 301.015189 0003 0018 35
E: 301.015192 0000 0000 0
E: 301.030668 0003 002f 0
E: 301.030672 0003 0036 839
E: 301.030676 0003 003a 32
E: 301.030679 0003 0030 258
E: 301.030690 0003 002f 1
E: 301.030691 0003 003a 25
E: 301.030704 0003 0001 839
E: 301.030707 0003 0018 32
E: 301.030710 0000 0000 0
E: 301.046304 0003 002f 0
E: 301.046306 0003 0035 1244
E: 301.046308 0003 0036 835
E: 301.046311 0003 0030 224
E: 301.046317 0003 002f 1
E: 301.046318 0003 0036 457
E: 301.046320 0003 003a 26
E: 301.046327 0003 0000 1244
E: 301.046329 0003 0001 835
E: 301.046331 0000 0000 0
E: 301.064197 0003 002f 0
E: 301.064200 0003 0035 1245
E: 301.064203 0003 003a 24
E: 301.064205 0003 0030 128
E: 301.064212 0003 0000 1245
E: 301.064214 0003 0018 24
E: 301.064216 0000 0000 0
E: 301.093278 0003 002f 1
E: 301.093281 0003 0039 -1
E: 301.093284 0001 0145 1
E: 301.093287 0001 014d 0
E: 301.093292 0000 0000 0
E: 301.098566 0003 002f 0
E: 301.098569 0003 0039 -1
E: 301.098572 0001 014a 0
E: 301.098573 0001 0145 0
E: 301.098576 0003 0018 0
E: 301.098578 0000 0000 0
E: 301.099078 0003 002f 0
E: 301.099078 0003 0039 -1
E: 301.099078 0003 002f 1
E: 301.099078 0003 0039 -1
E: 301.099078 0003 002f 2
E: 301.099078 0003 0039 -1
E: 301.099078 0003 002f 3
E: 301.099078 0003 0039 -1
E: 301.099078 0003 002f 4
E: 301.099078 0003 0039 -1
E: 301.099078 0003 002f 5
E: 301.099078 0003 0039 -1
E: 301.099078 0003 002f 6
E: 301.099078 0003 0039 -1
E: 301.099078 0003 002f 7
E: 301.099078 0003 0039 -1
E: 301.099078 0003 002f 8
E: 301.099078 0003 0039 -1
E: 301.099078 0003 002f 9
E: 301.099078 0003 0039 -1
