# device: Atmel maXTouch Touchpad
# bit: 0B 00 00 00 00 00 00 00
# key: 00 00 00 00 00 00 00 00 00 00 00 00 00 00 00 00 00 00 00 00 00 00 00 00 00 00 00 00 00 00 00 00 00 00 01 00 00 00 00 00 20 E5 00 00 00 00 00 00 00 00 00 00 00 00 00 00 00 00 00 00 00 00 00 00 00 00 00 00 00 00 00 00 00 00 00 00 00 00 00 00 00 00 00 00 00 00 00 00 00 00 00 00 00 00 00 00
# rel: 00 00 00 00 00 00 00 00
# abs: 03 00 00 01 00 80 61 06
# led: 00 00 00 00 00 00 00 00
# prp: 05 00 00 00 00 00 00 00
# absinfo: 0 0 2039 0 0 20
# absinfo: 1 0 1359 0 0 20
# absinfo: 24 0 255 0 0 0
# absinfo: 47 0 9 0 0 0
# absinfo: 48 0 1878 0 0 0
# absinfo: 53 0 2039 0 0 20
# absinfo: 54 0 1359 0 0 20
# absinfo: 57 0 65535 0 0 0
# absinfo: 58 0 255 0 0 0
E: 7701.970145 0003 002f 0
E: 7701.970145 0003 0030 290
E: 7701.970145 0003 0031 0
E: 7701.970145 0003 0032 0
E: 7701.970145 0003 0033 0
E: 7701.970145 0003 0034 0
E: 7701.970145 0003 0035 331
E: 7701.970145 0003 0036 413
E: 7701.970145 0003 0037 0
E: 7701.970145 0003 0038 0
E: 7701.970145 0003 0039 550
E: 7701.970145 0003 003a 33
E: 7701.970145 0003 003b 0
E: 7701.970145 0003 002f 1
E: 7701.970145 0003 0039 -1
E: 7701.970145 0003 002f 2
E: 7701.970145 0003 0039 -1
E: 7701.970145 0003 002f 3
E: 7701.970145 0003 0039 -1
E: 7701.970145 0003 002f 4
E: 7701.970145 0003 0039 -1
E: 7701.970145 0003 002f 5
E: 7701.970145 0003 0039 -1
E: 7701.970145 0003 002f 6
E: 7701.970145 0003 0039 -1
E: 7701.970145 0003 002f 7
E: 7701.970145 0003 0039 -1
E: 7701.970145 0003 002f 8
E: 7701.970145 0003 0039 -1
E: 7701.970145 0003 002f 9
E: 7701.970145 0003 0039 -1
E: 7701.970145 0003 002f 0
E: 7701.970145 0001 0145 1
E: 7701.970145 0001 014a 1
E: 7701.970145 0000 0000 0
E: 7701.974944 0003 003a 37
E: 7701.974951 0003 0018 37
E: 7701.974954 0000 0000 0
E: 7701.980108 0003 003a 36
E: 7701.980111 0003 0030 318
E: 7701.980117 0003 0018 36
E: 7701.980119 0000 0000 0
E: 7701.985264 0003 003a 39
E: 7701.985271 0003 0018 39
E: 7701.985273 0000 0000 0
E: 7701.991401 0003 003a 42
E: 7701.991409 0003 0018 42
E: 7701.991411 0000 0000 0
E: 7701.996567 0003 003a 39
E: 7701.996569 0003 0030 342
E: 7701.996575 0003 0018 39
E: 7701.996577 0000 0000 0
E: 7702.001751 0003 0036 412
E: 7702.001754 0003 003a 43
E: 7702.001761 0003 0001 412
E: 7702.001763 0003 0018 43
E: 7702.001765 0000 0000 0
E: 7702.013128 0003 003a 42
E: 7702.013130 0003 0030 366
E: 7702.013137 0003 0018 42
E: 7702.013138 0000 0000 0
E: 7702.019470 0003 003a 43
E: 7702.019472 0003 0030 342
E: 7702.019478 0003 0018 43
E: 7702.019480 0000 0000 0
E: 7702.025843 0003 0036 411
E: 7702.025845 0003 003a 40
E: 7702.025847 0003 0030 366
E: 7702.025853 0003 0001 411
E: 7702.025855 0003 0018 40
E: 7702.025856 0000 0000 0
E: 7702.032675 0003 0036 410
E: 7702.032678 0003 003a 41
E: 7702.032679 0003 0030 342
E: 7702.032682 0003 002f 1
E: 7702.032683 0003 0039 551
E: 7702.032686 0003 0035 530
E: 7702.032688 0003 0036 1106
E: 7702.032689 0003 003a 31
E: 7702.032691 0003 0030 290
E: 7702.032694 0001 0145 0
E: 7702.032696 0001 014d 1
E: 7702.032700 0003 0001 410
E: 7702.032702 0003 0018 41
E: 7702.032703 0000 0000 0
E: 7702.039083 0003 002f 0
E: 7702.039085 0003 0035 330
E: 7702.039087 0003 0036 409
E: 7702.039088 0003 003a 45
E: 7702.039090 0003 0030 366
E: 7702.039095 0003 002f 1
E: 7702.039096 0003 0036 1105
E: 7702.039098 0003 003a 29
E: 7702.039105 0003 0000 330
E: 7702.039106 0003 0001 409
E: 7702.039108 0003 0018 45
E: 7702.039110 0000 0000 0
E: 7702.045460 0003 002f 0
E: 7702.045462 0003 0036 408
E: 7702.045464 0003 003a 43
E: 7702.045470 0003 002f 1
E: 7702.045471 0003 003a 31
E: 7702.045478 0003 0001 408
E: 7702.045480 0003 0018 43
E: 7702.045482 0000 0000 0
E: 7702.051838 0003 002f 0
E: 7702.051841 0003 0035 329
E: 7702.051843 0003 0036 406
E: 7702.051845 0003 0030 342
E: 7702.051852 0003 002f 1
E: 7702.051853 0003 003a 30
E: 7702.051854 0003 0030 258
E: 7702.051860 0003 0000 329
E: 7702.051862 0003 0001 406
E: 7702.051865 0000 0000 0
E: 7702.058246 0003 002f 0
E: 7702.058248 0003 0036 404
E: 7702.058250 0003 0030 366
E: 7702.058255 0003 002f 1
E: 7702.058256 0003 0035 531
E: 7702.058258 0003 0036 1104
E: 7702.058259 0003 003a 31
E: 7702.058266 0003 0001 404
E: 7702.058269 0000 0000 0
E: 7702.064582 0003 002f 0
E: 7702.064584 0003 0035 328
E: 7702.064586 0003 0036 401
E: 7702.064587 0003 003a 39
E: 7702.064589 0003 0030 342
E: 7702.064596 0003 002f 1
E: 7702.064597 0003 0030 290
E: 7702.064602 0003 0000 328
E: 7702.064604 0003 0001 401
E: 7702.064606 0003 0018 39
E: 7702.064608 0000 0000 0
E: 7702.070910 0003 002f 0
E: 7702.070911 0003 0035 326
E: 7702.070913 0003 0036 397
E: 7702.070915 0003 003a 42
E: 7702.070920 0003 002f 1
E: 7702.070921 0003 0035 532
E: 7702.070923 0003 0036 1103
E: 7702.070925 0003 003a 33
E: 7702.070931 0003 0000 326
E: 7702.070933 0003 0001 397
E: 7702.070934 0003 0018 42
E: 7702.070936 0000 0000 0
E: 7702.077237 0003 002f 0
E: 7702.077239 0003 0035 325
E: 7702.077241 0003 0036 394
E: 7702.077243 0003 003a 45
E: 7702.077244 0003 0030 366
E: 7702.077249 0003 002f 1
E: 7702.077250 0003 0035 533
E: 7702.077252 0003 0036 1101
E: 7702.077253 0003 003a 34
E: 7702.077255 0003 0030 318
E: 7702.077260 0003 0000 325
E: 7702.077262 0003 0001 394
E: 7702.077264 0003 0018 45
E: 7702.077266 0000 0000 0
E: 7702.083589 0003 002f 0
E: 7702.083591 0003 0035 324
E: 7702.083592 0003 0036 390
E: 7702.083594 0003 003a 47
E: 7702.083600 0003 002f 1
E: 7702.083601 0003 0036 1100
E: 7702.083603 0003 003a 35
E: 7702.083605 0003 0030 342
E: 7702.083610 0003 0000 324
E: 7702.083612 0003 0001 390
E: 7702.083614 0003 0018 47
E: 7702.083616 0000 0000 0
E: 7702.089899 0003 002f 0
E: 7702.089900 0003 0035 320
E: 7702.089902 0003 0036 382
E: 7702.089904 0003 003a 40
E: 7702.089909 0003 002f 1
E: 7702.089910 0003 0035 534
E: 7702.089912 0003 0036 1098
E: 7702.089913 0003 003a 34
E: 7702.089915 0003 0030 318
E: 7702.089921 0003 0000 320
E: 7702.089922 0003 0001 382
E: 7702.089924 0003 0018 40
E: 7702.089926 0000 0000 0
E: 7702.096291 0003 002f 0
E: 7702.096293 0003 0035 315
E: 7702.096295 0003 0036 373
E: 7702.096297 0003 003a 39
E: 7702.096299 0003 0030 342
E: 7702.096304 0003 002f 1
E: 7702.096305 0003 0036 1096
E: 7702.096307 0003 003a 31
E: 7702.096309 0003 0030 290
E: 7702.096314 0003 0000 315
E: 7702.096316 0003 0001 373
E: 7702.096318 0003 0018 39
E: 7702.096319 0000 0000 0
E: 7702.102725 0003 002f 0
E: 7702.102727 0003 0035 313
E: 7702.102729 0003 0036 365
E: 7702.102731 0003 003a 42
E: 7702.102740 0003 002f 1
E: 7702.102741 0003 0035 535
E: 7702.102746 0003 0036 1094
E: 7702.102748 0003 003a 37
E: 7702.102751 0003 0030 318
E: 7702.102756 0003 0000 313
E: 7702.102758 0003 0001 365
E: 7702.102760 0003 0018 42
E: 7702.102762 0000 0000 0
E: 7702.109027 0003 002f 0
E: 7702.109030 0003 0035 311
E: 7702.109032 0003 0036 359
E: 7702.109034 0003 0030 318
E: 7702.109039 0003 002f 1
E: 7702.109040 0003 0035 537
E: 7702.109042 0003 0036 1090
E: 7702.109043 0003 003a 36
E: 7702.109050 0003 0000 311
E: 7702.109052 0003 0001 359
E: 7702.109054 0000 0000 0
E: 7702.115442 0003 002f 0
E: 7702.115444 0003 0035 309
E: 7702.115446 0003 0036 353
E: 7702.115448 0003 003a 40
E: 7702.115450 0003 0030 290
E: 7702.115454 0003 002f 1
E: 7702.115456 0003 0035 539
E: 7702.115457 0003 0036 1087
E: 7702.115459 0003 003a 33
E: 7702.115466 0003 0000 309
E: 7702.115468 0003 0001 353
E: 7702.115469 0003 0018 40
E: 7702.115471 0000 0000 0
E: 7702.121727 0003 002f 0
E: 7702.121729 0003 0035 307
E: 7702.121731 0003 0036 348
E: 7702.121733 0003 003a 42
E: 7702.121735 0003 0030 318
E: 7702.121740 0003 002f 1
E: 7702.121741 0003 0035 540
E: 7702.121742 0003 0036 1083
E: 7702.121744 0003 003a 37
E: 7702.121751 0003 0000 307
E: 7702.121752 0003 0001 348
E: 7702.121754 0003 0018 42
E: 7702.121756 0000 0000 0
E: 7702.128144 0003 002f 0
E: 7702.128146 0003 0035 304
E: 7702.128148 0003 0036 342
E: 7702.128150 0003 003a 38
E: 7702.128152 0003 0030 290
E: 7702.128156 0003 002f 1
E: 7702.128157 0003 0035 542
E: 7702.128159 0003 0036 1080
E: 7702.128161 0003 003a 35
E: 7702.128163 0003 0030 342
E: 7702.128168 0003 0000 304
E: 7702.128170 0003 0001 342
E: 7702.128172 0003 0018 38
E: 7702.128174 0000 0000 0
E: 7702.134501 0003 002f 0
E: 7702.134503 0003 0035 303
E: 7702.134505 0003 0036 338
E: 7702.134507 0003 003a 42
E: 7702.134509 0003 0030 342
E: 7702.134513 0003 002f 1
E: 7702.134515 0003 0035 543
E: 7702.134516 0003 0036 1076
E: 7702.134518 0003 003a 37
E: 7702.134525 0003 0000 303
E: 7702.134527 0003 0001 338
E: 7702.134529 0003 0018 42
E: 7702.134530 0000 0000 0
E: 7702.141005 0003 002f 0
E: 7702.141007 0003 0035 301
E: 7702.141009 0003 0036 333
E: 7702.141011 0003 003a 39
E: 7702.141013 0003 0030 318
E: 7702.141018 0003 002f 1
E: 7702.141019 0003 0035 545
E: 7702.141021 0003 0036 1070
E: 7702.141022 0003 003a 35
E: 7702.141024 0003 0030 318
E: 7702.141030 0003 0000 301
E: 7702.141032 0003 0001 333
E: 7702.141034 0003 0018 39
E: 7702.141035 0000 0000 0
E: 7702.147378 0003 002f 0
E: 7702.147380 0003 0035 300
E: 7702.147382 0003 0036 329
E: 7702.147384 0003 003a 38
E: 7702.147389 0003 002f 1
E: 7702.147390 0003 0035 548
E: 7702.147392 0003 0036 1066
E: 7702.147394 0003 003a 36
E: 7702.147396 0003 0030 342
E: 7702.147402 0003 0000 300
E: 7702.147403 0003 0001 329
E: 7702.147405 0003 0018 38
E: 7702.147407 0000 0000 0
E: 7702.153870 0003 002f 0
E: 7702.153872 0003 0035 299
E: 7702.153874 0003 0036 326
E: 7702.153876 0003 003a 41
E: 7702.153881 0003 002f 1
E: 7702.153883 0003 0035 551
E: 7702.153884 0003 0036 1060
E: 7702.153886 0003 003a 39
E: 7702.153888 0003 0030 318
E: 7702.153894 0003 0000 299
E: 7702.153896 0003 0001 326
E: 7702.153898 0003 0018 41
E: 7702.153899 0000 0000 0
E: 7702.160393 0003 002f 0
E: 7702.160395 0003 0035 298
E: 7702.160398 0003 0036 323
E: 7702.160399 0003 003a 39
E: 7702.160405 0003 002f 1
E: 7702.160406 0003 0035 553
E: 7702.160408 0003 0036 1056
E: 7702.160409 0003 003a 36
E: 7702.160416 0003 0000 298
E: 7702.160418 0003 0001 323
E: 7702.160420 0003 0018 39
E: 7702.160422 0000 0000 0
E: 7702.166771 0003 002f 0
E: 7702.166773 0003 0035 297
E: 7702.166775 0003 0036 320
E: 7702.166777 0003 003a 41
E: 7702.166782 0003 002f 1
E: 7702.166784 0003 0035 555
E: 7702.166785 0003 0036 1053
E: 7702.166787 0003 003a 40
E: 7702.166789 0003 0030 342
E: 7702.166795 0003 0000 297
E: 7702.166797 0003 0001 320
E: 7702.166798 0003 0018 41
E: 7702.166800 0000 0000 0
E: 7702.173183 0003 002f 0
E: 7702.173185 0003 0035 296
E: 7702.173187 0003 0036 317
E: 7702.173189 0003 003a 44
E: 7702.173194 0003 002f 1
E: 7702.173195 0003 0035 556
E: 7702.173197 0003 0036 1049
E: 7702.173199 0003 003a 37
E: 7702.173205 0003 0000 296
E: 7702.173207 0003 0001 317
E: 7702.173209 0003 0018 44
E: 7702.173211 0000 0000 0
E: 7702.179679 0003 002f 0
E: 7702.179681 0003 0035 294
E: 7702.179683 0003 0036 314
E: 7702.179690 0003 002f 1
E: 7702.179691 0003 0036 1047
E: 7702.179694 0003 003a 36
E: 7702.179696 0003 0030 318
E: 7702.179702 0003 0000 294
E: 7702.179704 0003 0001 314
E: 7702.179708 0000 0000 0
E: 7702.187515 0003 002f 0
E: 7702.187517 0003 0035 292
E: 7702.187519 0003 0036 310
E: 7702.187522 0003 0030 342
E: 7702.187527 0003 002f 1
E: 7702.187528 0003 0035 555
E: 7702.187530 0003 0036 1044
E: 7702.187531 0003 003a 39
E: 7702.187538 0003 0000 292
E: 7702.187539 0003 0001 310
E: 7702.187542 0000 0000 0
E: 7702.193964 0003 002f 0
E: 7702.193966 0003 0035 291
E: 7702.193968 0003 0036 306
E: 7702.193970 0003 003a 45
E: 7702.193972 0003 0030 318
E: 7702.193976 0003 002f 1
E: 7702.193977 0003 0035 556
E: 7702.193979 0003 0036 1042
E: 7702.193982 0003 0030 342
E: 7702.193987 0003 0000 291
E: 7702.193989 0003 0001 306
E: 7702.193991 0003 0018 45
E: 7702.193993 0000 0000 0
E: 7702.200415 0003 002f 0
E: 7702.200416 0003 0035 290
E: 7702.200418 0003 0036 303
E: 7702.200420 0003 003a 44
E: 7702.200426 0003 002f 1
E: 7702.200427 0003 0036 1040
E: 7702.200429 0003 003a 38
E: 7702.200430 0003 0030 318
E: 7702.200436 0003 0000 290
E: 7702.200438 0003 0001 303
E: 7702.200440 0003 0018 44
E: 7702.200442 0000 0000 0
E: 7702.206917 0003 002f 0
E: 7702.206919 0003 0035 289
E: 7702.206921 0003 0036 300
E: 7702.206922 0003 003a 41
E: 7702.206928 0003 002f 1
E: 7702.206929 0003 0035 557
E: 7702.206931 0003 0036 1038
E: 7702.206938 0003 0000 289
E: 7702.206940 0003 0001 300
E: 7702.206942 0003 0018 41
E: 7702.206944 0000 0000 0
E: 7702.213327 0003 002f 0
E: 7702.213329 0003 0035 288
E: 7702.213331 0003 0036 296
E: 7702.213333 0003 003a 46
E: 7702.213339 0003 002f 1
E: 7702.213340 0003 0036 1037
E: 7702.213342 0003 003a 37
E: 7702.213343 0003 0030 342
E: 7702.213349 0003 0000 288
E: 7702.213351 0003 0001 296
E: 7702.213353 0003 0018 46
E: 7702.213355 0000 0000 0
E: 7702.219810 0003 002f 0
E: 7702.219812 0003 0035 287
E: 7702.219814 0003 0036 292
E: 7702.219816 0003 003a 45
E: 7702.219821 0003 002f 1
E: 7702.219822 0003 0035 556
E: 7702.219824 0003 0036 1036
E: 7702.219826 0003 003a 38
E: 7702.219827 0003 0030 318
E: 7702.219833 0003 0000 287
E: 7702.219835 0003 0001 292
E: 7702.219837 0003 0018 45
E: 7702.219838 0000 0000 0
E: 7702.226248 0003 002f 0
E: 7702.226250 0003 0036 289
E: 7702.226252 0003 003a 40
E: 7702.226258 0003 002f 1
E: 7702.226259 0003 0035 557
E: 7702.226260 0003 0036 1034
E: 7702.226262 0003 003a 39
E: 7702.226269 0003 0001 289
E: 7702.226271 0003 0018 40
E: 7702.226273 0000 0000 0
E: 7702.232783 0003 002f 0
E: 7702.232785 0003 0035 286
E: 7702.232787 0003 0036 285
E: 7702.232788 0003 003a 41
E: 7702.232794 0003 002f 1
E: 7702.232795 0003 0036 1033
E: 7702.232797 0003 003a 38
E: 7702.232804 0003 0000 286
E: 7702.232806 0003 0001 285
E: 7702.232807 0003 0018 41
E: 7702.232809 0000 0000 0
E: 7702.239236 0003 002f 0
E: 7702.239238 0003 0035 284
E: 7702.239240 0003 0036 282
E: 7702.239242 0003 003a 44
E: 7702.239244 0003 0030 342
E: 7702.239248 0003 002f 1
E: 7702.239249 0003 0035 558
E: 7702.239251 0003 0036 1032
E: 7702.239253 0003 003a 37
E: 7702.239259 0003 0000 284
E: 7702.239261 0003 0001 282
E: 7702.239263 0003 0018 44
E: 7702.239265 0000 0000 0
E: 7702.245607 0003 002f 0
E: 7702.245609 0003 0035 282
E: 7702.245611 0003 0036 278
E: 7702.245612 0003 003a 42
E: 7702.245618 0003 002f 1
E: 7702.245619 0003 0036 1030
E: 7702.245621 0003 003a 38
E: 7702.245623 0003 0030 342
E: 7702.245629 0003 0000 282
E: 7702.245631 0003 0001 278
E: 7702.245632 0003 0018 42
E: 7702.245634 0000 0000 0
E: 7702.252065 0003 002f 0
E: 7702.252067 0003 0035 281
E: 7702.252069 0003 0036 275
E: 7702.252071 0003 003a 44
E: 7702.252073 0003 0030 318
E: 7702.252078 0003 002f 1
E: 7702.252079 0003 0036 1029
E: 7702.252081 0003 003a 39
E: 7702.252082 0003 0030 318
E: 7702.252088 0003 0000 281
E: 7702.252090 0003 0001 275
E: 7702.252092 0003 0018 44
E: 7702.252094 0000 0000 0
E: 7702.258507 0003 002f 0
E: 7702.258509 0003 0035 280
E: 7702.258511 0003 0036 272
E: 7702.258518 0003 002f 1
E: 7702.258519 0003 0036 1028
E: 7702.258521 0003 003a 40
E: 7702.258523 0003 0030 342
E: 7702.258529 0003 0000 280
E: 7702.258530 0003 0001 272
E: 7702.258533 0000 0000 0
E: 7702.264912 0003 002f 0
E: 7702.264914 0003 0035 279
E: 7702.264916 0003 0036 270
E: 7702.264917 0003 003a 42
E: 7702.264923 0003 002f 1
E: 7702.264925 0003 0036 1027
E: 7702.264926 0003 003a 38
E: 7702.264933 0003 0000 279
E: 7702.264935 0003 0001 270
E: 7702.264937 0003 0018 42
E: 7702.264939 0000 0000 0
E: 7702.271322 0003 002f 0
E: 7702.271324 0003 0036 268
E: 7702.271330 0003 002f 1
E: 7702.271331 0003 0035 559
E: 7702.271333 0003 0036 1026
E: 7702.271335 0003 003a 40
E: 7702.271342 0003 0001 268
E: 7702.271345 0000 0000 0
E: 7702.277768 0003 002f 0
E: 7702.277770 0003 0035 278
E: 7702.277772 0003 0036 266
E: 7702.277774 0003 003a 43
E: 7702.277780 0003 002f 1
E: 7702.277781 0003 0036 1025
E: 7702.277783 0003 003a 38
E: 7702.277784 0003 0030 366
E: 7702.277790 0003 0000 278
E: 7702.277792 0003 0001 266
E: 7702.277794 0003 0018 43
E: 7702.277796 0000 0000 0
E: 7702.284172 0003 002f 0
E: 7702.284174 0003 0035 277
E: 7702.284176 0003 0036 264
E: 7702.284178 0003 003a 45
E: 7702.284183 0003 002f 1
E: 7702.284184 0003 0035 560
E: 7702.284186 0003 0036 1023
E: 7702.284188 0003 003a 40
E: 7702.284190 0003 0030 342
E: 7702.284195 0003 0000 277
E: 7702.284197 0003 0001 264
E: 7702.284199 0003 0018 45
E: 7702.284201 0000 0000 0
E: 7702.290583 0003 002f 0
E: 7702.290584 0003 0035 276
E: 7702.290587 0003 0036 262
E: 7702.290588 0003 003a 42
E: 7702.290595 0003 002f 1
E: 7702.290596 0003 003a 41
E: 7702.290598 0003 0030 366
E: 7702.290604 0003 0000 276
E: 7702.290606 0003 0001 262
E: 7702.290608 0003 0018 42
E: 7702.290610 0000 0000 0
E: 7702.297082 0003 002f 0
E: 7702.297084 0003 0035 275
E: 7702.297086 0003 0036 260
E: 7702.297088 0003 003a 41
E: 7702.297090 0003 0030 290
E: 7702.297095 0003 002f 1
E: 7702.297096 0003 0036 1022
E: 7702.297098 0003 003a 39
E: 7702.297100 0003 0030 318
E: 7702.297106 0003 0000 275
E: 7702.297108 0003 0001 260
E: 7702.297110 0003 0018 41
E: 7702.297111 0000 0000 0
E: 7702.303464 0003 002f 0
E: 7702.303466 0003 0036 259
E: 7702.303468 0003 003a 43
E: 7702.303470 0003 0030 318
E: 7702.303475 0003 002f 1
E: 7702.303476 0003 0036 1021
E: 7702.303478 0003 003a 40
E: 7702.303480 0003 0030 342
E: 7702.303486 0003 0001 259
E: 7702.303488 0003 0018 43
E: 7702.303490 0000 0000 0
E: 7702.309952 0003 002f 0
E: 7702.309956 0003 0035 274
E: 7702.309959 0003 0036 257
E: 7702.309961 0003 003a 40
E: 7702.309963 0003 0030 342
E: 7702.309970 0003 002f 1
E: 7702.309972 0003 003a 35
E: 7702.309974 0003 0030 318
E: 7702.309980 0003 0000 274
E: 7702.309982 0003 0001 257
E: 7702.309984 0003 0018 40
E: 7702.309986 0000 0000 0
E: 7702.316413 0003 002f 0
E: 7702.316416 0003 0036 256
E: 7702.316418 0003 003a 42
E: 7702.316420 0003 0030 318
E: 7702.316426 0003 002f 1
E: 7702.316427 0003 003a 37
E: 7702.316435 0003 0001 256
E: 7702.316436 0003 0018 42
E: 7702.316439 0000 0000 0
E: 7702.322820 0003 002f 0
E: 7702.322823 0003 003a 40
E: 7702.322826 0003 0030 342
E: 7702.322834 0003 002f 1
E: 7702.322836 0003 0036 1020
E: 7702.322838 0003 003a 42
E: 7702.322841 0003 0030 342
E: 7702.322852 0003 0018 40
E: 7702.322854 0000 0000 0
E: 7702.329182 0003 002f 0
E: 7702.329186 0003 0036 254
E: 7702.329196 0003 002f 1
E: 7702.329197 0003 0036 1019
E: 7702.329200 0003 003a 37
E: 7702.329211 0003 0001 254
E: 7702.329215 0000 0000 0
E: 7702.335676 0003 002f 0
E: 7702.335680 0003 0035 273
E: 7702.335683 0003 0036 253
E: 7702.335688 0003 0030 290
E: 7702.335699 0003 002f 1
E: 7702.335701 0003 0030 318
E: 7702.335710 0003 0000 273
E: 7702.335712 0003 0001 253
E: 7702.335715 0000 0000 0
E: 7702.342067 0003 002f 0
E: 7702.342069 0003 0035 274
E: 7702.342073 0003 0030 318
E: 7702.342078 0003 002f 1
E: 7702.342079 0003 0035 561
E: 7702.342081 0003 0036 1018
E: 7702.342084 0003 0030 342
E: 7702.342090 0003 0000 274
E: 7702.342093 0000 0000 0
E: 7702.348163 0003 002f 0
E: 7702.348166 0003 0035 273
E: 7702.348169 0003 0036 252
E: 7702.348172 0003 003a 42
E: 7702.348174 0003 0030 342
E: 7702.348183 0003 0000 273
E: 7702.348186 0003 0001 252
E: 7702.348188 0003 0018 42
E: 7702.348191 0000 0000 0
E: 7702.355001 0003 0036 251
E: 7702.355119 0003 0030 290
E: 7702.355125 0003 002f 1
E: 7702.355127 0003 003a 30
E: 7702.355128 0003 0030 290
E: 7702.355135 0003 0001 251
E: 7702.355138 0000 0000 0
E: 7702.361421 0003 002f 0
E: 7702.361423 0003 0035 274
E: 7702.361425 0003 0036 249
E: 7702.361427 0003 003a 37
E: 7702.361428 0003 0030 342
E: 7702.361433 0003 002f 1
E: 7702.361434 0003 0035 562
E: 7702.361436 0003 0036 1017
E: 7702.361438 0003 003a 39
E: 7702.361439 0003 0030 318
E: 7702.361445 0003 0000 274
E: 7702.361447 0003 0001 249
E: 7702.361449 0003 0018 37
E: 7702.361450 0000 0000 0
E: 7702.367807 0003 002f 0
E: 7702.367810 0003 0035 273
E: 7702.367812 0003 0036 248
E: 7702.367813 0003 003a 43
E: 7702.367815 0003 0030 318
E: 7702.367822 0003 002f 1
E: 7702.367823 0003 0030 342
E: 7702.367829 0003 0000 273
E: 7702.367831 0003 0001 248
E: 7702.367833 0003 0018 43
E: 7702.367835 0000 0000 0
E: 7702.374283 0003 002f 0
E: 7702.374284 0003 0035 272
E: 7702.374286 0003 0036 246
E: 7702.374288 0003 003a 39
E: 7702.374295 0003 002f 1
E: 7702.374296 0003 003a 37
E: 7702.374297 0003 0030 318
E: 7702.374303 0003 0000 272
E: 7702.374305 0003 0001 246
E: 7702.374306 0003 0018 39
E: 7702.374308 0000 0000 0
E: 7702.380701 0003 002f 0
E: 7702.380703 0003 0036 244
E: 7702.380705 0003 003a 42
E: 7702.380707 0003 0030 342
E: 7702.380713 0003 002f 1
E: 7702.380714 0003 0036 1016
E: 7702.380715 0003 003a 39
E: 7702.380717 0003 0030 342
E: 7702.380724 0003 0001 244
E: 7702.380726 0003 0018 42
E: 7702.380728 0000 0000 0
E: 7702.388545 0003 002f 0
E: 7702.388547 0003 0035 271
E: 7702.388549 0003 0036 243
E: 7702.388551 0003 003a 44
E: 7702.388553 0003 0030 318
E: 7702.388558 0003 002f 1
E: 7702.388559 0003 0036 1015
E: 7702.388566 0003 0000 271
E: 7702.388568 0003 0001 243
E: 7702.388570 0003 0018 44
E: 7702.388572 0000 0000 0
E: 7702.394987 0003 002f 0
E: 7702.394990 0003 0035 270
E: 7702.395000 0003 0036 241
E: 7702.395036 0003 002f 1
E: 7702.395038 0003 0036 1014
E: 7702.395040 0003 003a 37
E: 7702.395050 0003 0000 270
E: 7702.395052 0003 0001 241
E: 7702.395058 0000 0000 0
E: 7702.401359 0003 002f 0
E: 7702.401361 0003 0035 268
E: 7702.401363 0003 0036 239
E: 7702.401365 0003 003a 40
E: 7702.401367 0003 0030 342
E: 7702.401373 0003 002f 1
E: 7702.401374 0003 0036 1012
E: 7702.401376 0003 003a 40
E: 7702.401382 0003 0000 268
E: 7702.401384 0003 0001 239
E: 7702.401386 0003 0018 40
E: 7702.401388 0000 0000 0
E: 7702.407726 0003 002f 0
E: 7702.407728 0003 0035 267
E: 7702.407730 0003 0036 236
E: 7702.407732 0003 003a 38
E: 7702.407738 0003 002f 1
E: 7702.407739 0003 0035 561
E: 7702.407741 0003 0036 1011
E: 7702.407742 0003 003a 38
E: 7702.407749 0003 0000 267
E: 7702.407751 0003 0001 236
E: 7702.407753 0003 0018 38
E: 7702.407755 0000 0000 0
E: 7702.414154 0003 002f 0
E: 7702.414156 0003 0035 266
E: 7702.414158 0003 0036 233
E: 7702.414164 0003 002f 1
E: 7702.414166 0003 0035 562
E: 7702.414167 0003 0036 1009
E: 7702.414169 0003 003a 37
E: 7702.414175 0003 0000 266
E: 7702.414177 0003 0001 233
E: 7702.414180 0000 0000 0
E: 7702.420517 0003 002f 0
E: 7702.420519 0003 0035 262
E: 7702.420521 0003 0036 228
E: 7702.420522 0003 003a 39
E: 7702.420528 0003 002f 1
E: 7702.420530 0003 0036 1008
E: 7702.420531 0003 003a 40
E: 7702.420538 0003 0000 262
E: 7702.420540 0003 0001 228
E: 7702.420541 0003 0018 39
E: 7702.420543 0000 0000 0
E: 7702.426927 0003 002f 0
E: 7702.426928 0003 0035 260
E: 7702.426930 0003 0036 224
E: 7702.426932 0003 003a 37
E: 7702.426934 0003 0030 318
E: 7702.426939 0003 002f 1
E: 7702.426940 0003 0035 561
E: 7702.426942 0003 0036 1006
E: 7702.426943 0003 003a 41
E: 7702.426950 0003 0000 260
E: 7702.426951 0003 0001 224
E: 7702.426953 0003 0018 37
E: 7702.426955 0000 0000 0
E: 7702.433342 0003 002f 0
E: 7702.433344 0003 0035 259
E: 7702.433347 0003 0036 219
E: 7702.433350 0003 003a 40
E: 7702.433352 0003 0030 342
E: 7702.433358 0003 002f 1
E: 7702.433359 0003 0035 562
E: 7702.433361 0003 0036 1003
E: 7702.433365 0003 003a 37
E: 7702.433372 0003 0000 259
E: 7702.433375 0003 0001 219
E: 7702.433377 0003 0018 40
E: 7702.433379 0000 0000 0
E: 7702.439680 0003 002f 0
E: 7702.439681 0003 0035 256
E: 7702.439684 0003 0036 215
E: 7702.439685 0003 003a 39
E: 7702.439692 0003 002f 1
E: 7702.439693 0003 0036 1001
E: 7702.439695 0003 003a 40
E: 7702.439701 0003 0000 256
E: 7702.439703 0003 0001 215
E: 7702.439705 0003 0018 39
E: 7702.439707 0000 0000 0
E: 7702.446002 0003 002f 0
E: 7702.446004 0003 0036 212
E: 7702.446010 0003 002f 1
E: 7702.446011 0003 0035 561
E: 7702.446013 0003 0036 999
E: 7702.446015 0003 003a 43
E: 7702.446022 0003 0001 212
E: 7702.446025 0000 0000 0
E: 7702.452413 0003 002f 0
E: 7702.452415 0003 0036 208
E: 7702.452418 0003 0030 366
E: 7702.452423 0003 002f 1
E: 7702.452424 0003 0036 996
E: 7702.452426 0003 003a 39
E: 7702.452433 0003 0001 208
E: 7702.452435 0000 0000 0
E: 7702.458874 0003 002f 0
E: 7702.458877 0003 0035 254
E: 7702.458879 0003 0036 207
E: 7702.458880 0003 003a 41
E: 7702.458887 0003 002f 1
E: 7702.458888 0003 0036 994
E: 7702.458890 0003 003a 38
E: 7702.458892 0003 0030 318
E: 7702.458898 0003 0000 254
E: 7702.458900 0003 0001 207
E: 7702.458902 0003 0018 41
E: 7702.458904 0000 0000 0
E: 7702.465175 0003 002f 0
E: 7702.465177 0003 0035 253
E: 7702.465179 0003 0036 204
E: 7702.465181 0003 003a 40
E: 7702.465183 0003 0030 342
E: 7702.465188 0003 002f 1
E: 7702.465189 0003 0036 992
E: 7702.465191 0003 003a 39
E: 7702.465197 0003 0000 253
E: 7702.465199 0003 0001 204
E: 7702.465201 0003 0018 40
E: 7702.465203 0000 0000 0
E: 7702.471564 0003 002f 0
E: 7702.471566 0003 0035 251
E: 7702.471568 0003 0036 201
E: 7702.471570 0003 003a 39
E: 7702.471575 0003 002f 1
E: 7702.471577 0003 0036 990
E: 7702.471578 0003 003a 41
E: 7702.471580 0003 0030 342
E: 7702.471586 0003 0000 251
E: 7702.471588 0003 0001 201
E: 7702.471590 0003 0018 39
E: 7702.471591 0000 0000 0
E: 7702.477926 0003 002f 0
E: 7702.477928 0003 0035 249
E: 7702.477930 0003 0036 199
E: 7702.477932 0003 003a 41
E: 7702.477938 0003 002f 1
E: 7702.477939 0003 0036 989
E: 7702.477941 0003 0030 366
E: 7702.477947 0003 0000 249
E: 7702.477949 0003 0001 199
E: 7702.477951 0003 0018 41
E: 7702.477953 0000 0000 0
E: 7702.484245 0003 002f 0
E: 7702.484248 0003 0035 248
E: 7702.484250 0003 0036 197
E: 7702.484252 0003 003a 42
E: 7702.484258 0003 002f 1
E: 7702.484259 0003 0036 987
E: 7702.484260 0003 003a 39
E: 7702.484262 0003 0030 318
E: 7702.484268 0003 0000 248
E: 7702.484270 0003 0001 197
E: 7702.484272 0003 0018 42
E: 7702.484274 0000 0000 0
E: 7702.490617 0003 002f 0
E: 7702.490619 0003 0035 247
E: 7702.490621 0003 0036 195
E: 7702.490623 0003 003a 41
E: 7702.490629 0003 002f 1
E: 7702.490630 0003 0036 985
E: 7702.490632 0003 003a 38
E: 7702.490639 0003 0000 247
E: 7702.490641 0003 0001 195
E: 7702.490642 0003 0018 41
E: 7702.490644 0000 0000 0
E: 7702.496997 0003 002f 0
E: 7702.496999 0003 0035 246
E: 7702.497001 0003 0036 193
E: 7702.497003 0003 003a 40
E: 7702.497008 0003 002f 1
E: 7702.497009 0003 0035 560
E: 7702.497011 0003 0036 984
E: 7702.497013 0003 003a 40
E: 7702.497020 0003 0000 246
E: 7702.497022 0003 0001 193
E: 7702.497023 0003 0018 40
E: 7702.497025 0000 0000 0
E: 7702.503369 0003 002f 0
E: 7702.503371 0003 0035 245
E: 7702.503373 0003 0036 192
E: 7702.503375 0003 003a 44
E: 7702.503377 0003 0030 366
E: 7702.503383 0003 002f 1
E: 7702.503384 0003 0036 983
E: 7702.503385 0003 003a 38
E: 7702.503392 0003 0000 245
E: 7702.503394 0003 0001 192
E: 7702.503396 0003 0018 44
E: 7702.503398 0000 0000 0
E: 7702.509753 0003 002f 0
E: 7702.509755 0003 0035 244
E: 7702.509757 0003 0036 191
E: 7702.509759 0003 003a 42
E: 7702.509765 0003 002f 1
E: 7702.509766 0003 0036 982
E: 7702.509768 0003 003a 40
E: 7702.509775 0003 0000 244
E: 7702.509776 0003 0001 191
E: 7702.509778 0003 0018 42
E: 7702.509780 0000 0000 0
E: 7702.516123 0003 002f 0
E: 7702.516125 0003 0035 243
E: 7702.516127 0003 0036 189
E: 7702.516129 0003 003a 40
E: 7702.516130 0003 0030 342
E: 7702.516136 0003 002f 1
E: 7702.516137 0003 0036 981
E: 7702.516139 0003 0030 342
E: 7702.516145 0003 0000 243
E: 7702.516147 0003 0001 189
E: 7702.516149 0003 0018 40
E: 7702.516150 0000 0000 0
E: 7702.522483 0003 002f 0
E: 7702.522485 0003 0035 242
E: 7702.522487 0003 0036 187
E: 7702.522489 0003 003a 43
E: 7702.522494 0003 002f 1
E: 7702.522496 0003 0035 559
E: 7702.522497 0003 0036 979
E: 7702.522499 0003 003a 38
E: 7702.522506 0003 0000 242
E: 7702.522508 0003 0001 187
E: 7702.522509 0003 0018 43
E: 7702.522511 0000 0000 0
E: 7702.528811 0003 002f 0
E: 7702.528813 0003 0035 241
E: 7702.528821 0003 002f 1
E: 7702.528822 0003 0036 978
E: 7702.528824 0003 003a 44
E: 7702.528826 0003 0030 388
E: 7702.528832 0003 0000 241
E: 7702.528835 0000 0000 0
E: 7702.535203 0003 002f 0
E: 7702.535205 0003 0036 186
E: 7702.535206 0003 003a 44
E: 7702.535208 0003 0030 366
E: 7702.535213 0003 002f 1
E: 7702.535215 0003 0036 977
E: 7702.535216 0003 003a 43
E: 7702.535218 0003 0030 318
E: 7702.535224 0003 0001 186
E: 7702.535227 0003 0018 44
E: 7702.535228 0000 0000 0
E: 7702.541578 0003 002f 0
E: 7702.541580 0003 0036 184
E: 7702.541582 0003 003a 41
E: 7702.541588 0003 002f 1
E: 7702.541589 0003 0036 975
E: 7702.541591 0003 003a 42
E: 7702.541593 0003 0030 342
E: 7702.541599 0003 0001 184
E: 7702.541601 0003 0018 41
E: 7702.541603 0000 0000 0
E: 7702.547956 0003 002f 0
E: 7702.547959 0003 0035 240
E: 7702.547961 0003 0036 183
E: 7702.547963 0003 003a 39
E: 7702.547965 0003 0030 342
E: 7702.547970 0003 002f 1
E: 7702.547971 0003 0035 560
E: 7702.547973 0003 0036 974
E: 7702.547975 0003 003a 40
E: 7702.547982 0003 0000 240
E: 7702.547983 0003 0001 183
E: 7702.547985 0003 0018 39
E: 7702.547987 0000 0000 0
E: 7702.554319 0003 002f 0
E: 7702.554321 0003 0036 182
E: 7702.554324 0003 003a 41
E: 7702.554329 0003 002f 1
E: 7702.554330 0003 0035 559
E: 7702.554332 0003 0036 973
E: 7702.554340 0003 0001 182
E: 7702.554342 0003 0018 41
E: 7702.554344 0000 0000 0
E: 7702.560737 0003 002f 0
E: 7702.560740 0003 0035 239
E: 7702.560743 0003 0036 181
E: 7702.560746 0003 003a 42
E: 7702.560754 0003 002f 1
E: 7702.560756 0003 0036 972
E: 7702.560758 0003 003a 43
E: 7702.560760 0003 0030 388
E: 7702.560768 0003 0000 239
E: 7702.560770 0003 0001 181
E: 7702.560772 0003 0018 42
E: 7702.560775 0000 0000 0
E: 7702.567091 0003 002f 0
E: 7702.567094 0003 0036 180
E: 7702.567097 0003 003a 43
E: 7702.567105 0003 002f 1
E: 7702.567107 0003 0036 970
E: 7702.567109 0003 003a 39
E: 7702.567112 0003 0030 342
E: 7702.567122 0003 0001 180
E: 7702.567124 0003 0018 43
E: 7702.567126 0000 0000 0
E: 7702.573417 0003 002f 0
E: 7702.573420 0003 0035 238
E: 7702.573422 0003 0036 179
E: 7702.573424 0003 003a 42
E: 7702.573427 0003 0030 366
E: 7702.573432 0003 002f 1
E: 7702.573433 0003 0036 969
E: 7702.573435 0003 003a 41
E: 7702.573442 0003 0000 238
E: 7702.573443 0003 0001 179
E: 7702.573445 0003 0018 42
E: 7702.573447 0000 0000 0
E: 7702.579808 0003 002f 0
E: 7702.579811 0003 0036 178
E: 7702.579821 0003 002f 1
E: 7702.579822 0003 0036 967
E: 7702.579824 0003 003a 40
E: 7702.579826 0003 0030 290
E: 7702.579833 0003 0001 178
E: 7702.579836 0000 0000 0
E: 7702.587813 0003 002f 0
E: 7702.587816 0003 0035 237
E: 7702.587821 0003 0030 342
E: 7702.587826 0003 002f 1
E: 7702.587828 0003 0036 966
E: 7702.587830 0003 003a 43
E: 7702.587832 0003 0030 366
E: 7702.587839 0003 0000 237
E: 7702.587843 0000 0000 0
E: 7702.594195 0003 002f 0
E: 7702.594198 0003 0036 177
E: 7702.594200 0003 003a 43
E: 7702.594206 0003 002f 1
E: 7702.594207 0003 0036 965
E: 7702.594209 0003 003a 40
E: 7702.594211 0003 0030 342
E: 7702.594218 0003 0001 177
E: 7702.594220 0003 0018 43
E: 7702.594222 0000 0000 0
E: 7702.600556 0003 002f 0
E: 7702.600560 0003 0036 176
E: 7702.600562 0003 003a 41
E: 7702.600568 0003 002f 1
E: 7702.600569 0003 0036 964
E: 7702.600571 0003 003a 44
E: 7702.600579 0003 0001 176
E: 7702.600581 0003 0018 41
E: 7702.600583 0000 0000 0
E: 7702.606889 0003 002f 0
E: 7702.606892 0003 0035 236
E: 7702.606895 0003 003a 42
E: 7702.606897 0003 0030 366
E: 7702.606903 0003 002f 1
E: 7702.606904 0003 003a 39
E: 7702.606911 0003 0000 236
E: 7702.606914 0003 0018 42
E: 7702.606916 0000 0000 0
E: 7702.613270 0003 002f 0
E: 7702.613273 0003 0036 175
E: 7702.613276 0003 003a 40
E: 7702.613285 0003 002f 1
E: 7702.613286 0003 0036 963
E: 7702.613289 0003 003a 37
E: 7702.613301 0003 0001 175
E: 7702.613303 0003 0018 40
E: 7702.613306 0000 0000 0
E: 7702.619653 0003 002f 0
E: 7702.619656 0003 0036 174
E: 7702.619665 0003 002f 1
E: 7702.619666 0003 003a 42
E: 7702.619669 0003 0030 366
E: 7702.619676 0003 0001 174
E: 7702.619679 0000 0000 0
E: 7702.625992 0003 002f 0
E: 7702.625994 0003 003a 37
E: 7702.625996 0003 0030 342
E: 7702.626001 0003 002f 1
E: 7702.626002 0003 0035 560
E: 7702.626004 0003 0036 962
E: 7702.626007 0003 0030 342
E: 7702.626014 0003 0018 37
E: 7702.626016 0000 0000 0
E: 7702.632334 0003 002f 0
E: 7702.632336 0003 003a 39
E: 7702.632342 0003 002f 1
E: 7702.632343 0003 0036 961
E: 7702.632345 0003 003a 41
E: 7702.632353 0003 0018 39
E: 7702.632355 0000 0000 0
E: 7702.638708 0003 002f 0
E: 7702.638710 0003 0036 173
E: 7702.638712 0003 003a 44
E: 7702.638714 0003 0030 366
E: 7702.638719 0003 002f 1
E: 7702.638720 0003 0036 960
E: 7702.638722 0003 003a 37
E: 7702.638724 0003 0030 318
E: 7702.638730 0003 0001 173
E: 7702.638732 0003 0018 44
E: 7702.638734 0000 0000 0
E: 7702.645098 0003 002f 0
E: 7702.645101 0003 003a 41
E: 7702.645103 0003 0030 342
E: 7702.645108 0003 002f 1
E: 7702.645109 0003 0036 959
E: 7702.645111 0003 003a 41
E: 7702.645113 0003 0030 342
E: 7702.645120 0003 0018 41
E: 7702.645122 0000 0000 0
E: 7702.651497 0003 002f 0
E: 7702.651500 0003 003a 43
E: 7702.651502 0003 0030 366
E: 7702.651509 0003 002f 1
E: 7702.651510 0003 003a 42
E: 7702.651512 0003 0030 366
E: 7702.651521 0003 0018 43
E: 7702.651524 0000 0000 0
E: 7702.657819 0003 002f 0
E: 7702.657821 0003 003a 38
E: 7702.657823 0003 0030 318
E: 7702.657829 0003 002f 1
E: 7702.657830 0003 0036 958
E: 7702.657832 0003 003a 44
E: 7702.657834 0003 0030 342
E: 7702.657841 0003 0018 38
E: 7702.657844 0000 0000 0
E: 7702.664194 0003 002f 0
E: 7702.664196 0003 0035 235
E: 7702.664198 0003 0036 172
E: 7702.664200 0003 003a 42
E: 7702.664202 0003 0030 342
E: 7702.664208 0003 002f 1
E: 7702.664209 0003 0036 957
E: 7702.664211 0003 003a 42
E: 7702.664213 0003 0030 366
E: 7702.664218 0003 0000 235
E: 7702.664220 0003 0001 172
E: 7702.664222 0003 0018 42
E: 7702.664224 0000 0000 0
E: 7702.670619 0003 002f 0
E: 7702.670622 0003 003a 44
E: 7702.670624 0003 0030 388
E: 7702.670630 0003 002f 1
E: 7702.670631 0003 003a 39
E: 7702.670633 0003 0030 290
E: 7702.670641 0003 0018 44
E: 7702.670643 0000 0000 0
E: 7702.677010 0003 002f 0
E: 7702.677012 0003 003a 41
E: 7702.677014 0003 0030 342
E: 7702.677019 0003 002f 1
E: 7702.677021 0003 0036 956
E: 7702.677023 0003 0030 342
E: 7702.677031 0003 0018 41
E: 7702.677033 0000 0000 0
E: 7702.683366 0003 002f 0
E: 7702.683369 0003 003a 44
E: 7702.683374 0003 002f 1
E: 7702.683375 0003 0035 561
E: 7702.683377 0003 0036 955
E: 7702.683379 0003 003a 41
E: 7702.683388 0003 0018 44
E: 7702.683389 0000 0000 0
E: 7702.689705 0003 002f 0
E: 7702.689707 0003 0036 171
E: 7702.689709 0003 003a 42
E: 7702.689711 0003 0030 366
E: 7702.689716 0003 002f 1
E: 7702.689717 0003 0036 954
E: 7702.689719 0003 003a 43
E: 7702.689721 0003 0030 366
E: 7702.689727 0003 0001 171
E: 7702.689729 0003 0018 42
E: 7702.689731 0000 0000 0
E: 7702.696081 0003 002f 0
E: 7702.696082 0003 003a 40
E: 7702.696089 0003 002f 1
E: 7702.696090 0003 003a 44
E: 7702.696098 0003 0018 40
E: 7702.696099 0000 0000 0
E: 7702.702461 0003 002f 0
E: 7702.702463 0003 003a 42
E: 7702.702469 0003 002f 1
E: 7702.702470 0003 0036 953
E: 7702.702472 0003 003a 43
E: 7702.702479 0003 0018 42
E: 7702.702481 0000 0000 0
E: 7702.708862 0003 002f 0
E: 7702.708864 0003 003a 44
E: 7702.708871 0003 002f 1
E: 7702.708872 0003 003a 42
E: 7702.708873 0003 0030 342
E: 7702.708880 0003 0018 44
E: 7702.708882 0000 0000 0
E: 7702.715246 0003 002f 0
E: 7702.715248 0003 0036 170
E: 7702.715250 0003 003a 43
E: 7702.715257 0003 002f 1
E: 7702.715258 0003 003a 43
E: 7702.715260 0003 0030 366
E: 7702.715266 0003 0001 170
E: 7702.715267 0003 0018 43
E: 7702.715269 0000 0000 0
E: 7702.721198 0003 0036 952
E: 7702.721200 0003 003a 41
E: 7702.721202 0003 0030 342
E: 7702.721210 0000 0000 0
E: 7702.727573 0003 003a 39
E: 7702.727575 0003 0030 318
E: 7702.727583 0000 0000 0
E: 7702.734324 0003 002f 0
E: 7702.734325 0003 003a 42
E: 7702.734328 0003 0030 342
E: 7702.734333 0003 002f 1
E: 7702.734334 0003 003a 42
E: 7702.734336 0003 0030 366
E: 7702.734343 0003 0018 42
E: 7702.734345 0000 0000 0
E: 7702.740683 0003 002f 0
E: 7702.740685 0003 0036 169
E: 7702.740691 0003 002f 1
E: 7702.740692 0003 0036 951
E: 7702.740694 0003 003a 43
E: 7702.740701 0003 0001 169
E: 7702.740704 0000 0000 0
E: 7702.747085 0003 002f 0
E: 7702.747087 0003 003a 44
E: 7702.747093 0003 002f 1
E: 7702.747094 0003 0035 560
E: 7702.747104 0003 0018 44
E: 7702.747106 0000 0000 0
E: 7702.753402 0003 002f 0
E: 7702.753404 0003 003a 40
E: 7702.753406 0003 0030 366
E: 7702.753418 0003 0018 40
E: 7702.753420 0000 0000 0
E: 7702.759754 0003 003a 39
E: 7702.759757 0003 0030 342
E: 7702.759761 0003 002f 1
E: 7702.759762 0003 0035 561
E: 7702.759765 0003 003a 39
E: 7702.759766 0003 0030 318
E: 7702.759773 0003 0018 39
E: 7702.759775 0000 0000 0
E: 7702.766186 0003 002f 0
E: 7702.766188 0003 0036 168
E: 7702.766190 0003 003a 44
E: 7702.766192 0003 0030 366
E: 7702.766197 0003 002f 1
E: 7702.766198 0003 0036 950
E: 7702.766200 0003 003a 44
E: 7702.766202 0003 0030 366
E: 7702.766208 0003 0001 168
E: 7702.766210 0003 0018 44
E: 7702.766212 0000 0000 0
E: 7702.772513 0003 002f 0
E: 7702.772514 0003 003a 40
E: 7702.772521 0003 002f 1
E: 7702.772522 0003 003a 41
E: 7702.772524 0003 0030 318
E: 7702.772531 0003 0018 40
E: 7702.772533 0000 0000 0
E: 7702.786519 0003 002f 0
E: 7702.786521 0003 003a 42
E: 7702.786528 0003 0018 42
E: 7702.786530 0000 0000 0
E: 7702.793294 0003 003a 44
E: 7702.793296 0003 0030 388
E: 7702.793302 0003 002f 1
E: 7702.793303 0003 003a 40
E: 7702.793305 0003 0030 342
E: 7702.793312 0003 0018 44
E: 7702.793314 0000 0000 0
E: 7702.799646 0003 002f 0
E: 7702.799647 0003 003a 41
E: 7702.799649 0003 0030 366
E: 7702.799655 0003 002f 1
E: 7702.799656 0003 003a 44
E: 7702.799658 0003 0030 366
E: 7702.799665 0003 0018 41
E: 7702.799666 0000 0000 0
E: 7702.805685 0003 003a 42
E: 7702.805688 0003 0030 388
E: 7702.805695 0000 0000 0
E: 7702.812432 0003 002f 0
E: 7702.812435 0003 003a 42
E: 7702.812436 0003 0030 342
E: 7702.812441 0003 002f 1
E: 7702.812443 0003 0036 949
E: 7702.812444 0003 003a 41
E: 7702.812446 0003 0030 342
E: 7702.812453 0003 0018 42
E: 7702.812455 0000 0000 0
E: 7702.818781 0003 002f 0
E: 7702.818782 0003 0036 167
E: 7702.818789 0003 002f 1
E: 7702.818790 0003 0036 950
E: 7702.818792 0003 003a 42
E: 7702.818799 0003 0001 167
E: 7702.818801 0000 0000 0
E: 7702.825129 0003 002f 0
E: 7702.825131 0003 003a 44
E: 7702.825132 0003 0030 366
E: 7702.825138 0003 002f 1
E: 7702.825139 0003 0036 949
E: 7702.825141 0003 003a 44
E: 7702.825148 0003 0018 44
E: 7702.825150 0000 0000 0
E: 7702.831508 0003 002f 0
E: 7702.831510 0003 003a 40
E: 7702.831511 0003 0030 342
E: 7702.831517 0003 002f 1
E: 7702.831518 0003 003a 39
E: 7702.831520 0003 0030 318
E: 7702.831527 0003 0018 40
E: 7702.831529 0000 0000 0
E: 7702.837841 0003 002f 0
E: 7702.837843 0003 003a 43
E: 7702.837844 0003 0030 366
E: 7702.837850 0003 002f 1
E: 7702.837851 0003 003a 43
E: 7702.837853 0003 0030 366
E: 7702.837860 0003 0018 43
E: 7702.837862 0000 0000 0
E: 7702.844233 0003 002f 0
E: 7702.844234 0003 003a 44
E: 7702.844240 0003 002f 1
E: 7702.844241 0003 003a 42
E: 7702.844243 0003 0030 342
E: 7702.844250 0003 0018 44
E: 7702.844252 0000 0000 0
E: 7702.850239 0003 003a 41
E: 7702.850247 0000 0000 0
E: 7702.856933 0003 002f 0
E: 7702.856934 0003 0035 234
E: 7702.856937 0003 003a 43
E: 7702.856939 0003 0030 342
E: 7702.856945 0003 002f 1
E: 7702.856946 0003 003a 43
E: 7702.856947 0003 0030 366
E: 7702.856953 0003 0000 234
E: 7702.856955 0003 0018 43
E: 7702.856957 0000 0000 0
E: 7702.863344 0003 002f 0
E: 7702.863345 0003 0035 235
E: 7702.863348 0003 003a 41
E: 7702.863350 0003 0030 366
E: 7702.863355 0003 002f 1
E: 7702.863357 0003 003a 39
E: 7702.863358 0003 0030 290
E: 7702.863364 0003 0000 235
E: 7702.863366 0003 0018 41
E: 7702.863368 0000 0000 0
E: 7702.869730 0003 002f 0
E: 7702.869731 0003 003a 44
E: 7702.869738 0003 002f 1
E: 7702.869739 0003 003a 40
E: 7702.869741 0003 0030 366
E: 7702.869748 0003 0018 44
E: 7702.869750 0000 0000 0
E: 7702.876066 0003 002f 0
E: 7702.876068 0003 003a 41
E: 7702.876069 0003 0030 342
E: 7702.876075 0003 002f 1
E: 7702.876076 0003 003a 46
E: 7702.876084 0003 0018 41
E: 7702.876086 0000 0000 0
E: 7702.882461 0003 002f 0
E: 7702.882463 0003 003a 44
E: 7702.882465 0003 0030 366
E: 7702.882470 0003 002f 1
E: 7702.882471 0003 003a 42
E: 7702.882473 0003 0030 342
E: 7702.882480 0003 0018 44
E: 7702.882482 0000 0000 0
E: 7702.888833 0003 002f 0
E: 7702.888835 0003 003a 42
E: 7702.888837 0003 0030 342
E: 7702.888841 0003 002f 1
E: 7702.888842 0003 0035 560
E: 7702.888844 0003 0036 948
E: 7702.888846 0003 003a 39
E: 7702.888854 0003 0018 42
E: 7702.888856 0000 0000 0
E: 7702.895182 0003 002f 0
E: 7702.895184 0003 003a 43
E: 7702.895189 0003 002f 1
E: 7702.895190 0003 0035 561
E: 7702.895193 0003 003a 41
E: 7702.895194 0003 0030 366
E: 7702.895201 0003 0018 43
E: 7702.895203 0000 0000 0
E: 7702.901541 0003 002f 0
E: 7702.901542 0003 003a 42
E: 7702.901544 0003 0030 366
E: 7702.901551 0003 002f 1
E: 7702.901552 0003 003a 43
E: 7702.901559 0003 0018 42
E: 7702.901561 0000 0000 0
E: 7702.907973 0003 002f 0
E: 7702.907975 0003 003a 44
E: 7702.907977 0003 0030 388
E: 7702.907981 0003 002f 1
E: 7702.907983 0003 0035 560
E: 7702.907985 0003 003a 42
E: 7702.907987 0003 0030 342
E: 7702.907994 0003 0018 44
E: 7702.907996 0000 0000 0
E: 7702.913979 0003 002f 0
E: 7702.913980 0003 003a 43
E: 7702.913982 0003 0030 366
E: 7702.913989 0003 0018 43
E: 7702.913991 0000 0000 0
E: 7702.920744 0003 003a 41
E: 7702.920746 0003 0030 388
E: 7702.920751 0003 002f 1
E: 7702.920752 0003 0035 561
E: 7702.920755 0003 003a 40
E: 7702.920763 0003 0018 41
E: 7702.920765 0000 0000 0
E: 7702.927077 0003 002f 0
E: 7702.927079 0003 003a 42
E: 7702.927081 0003 0030 342
E: 7702.927085 0003 002f 1
E: 7702.927086 0003 0035 560
E: 7702.927089 0003 003a 42
E: 7702.927091 0003 0030 366
E: 7702.927097 0003 0018 42
E: 7702.927099 0000 0000 0
E: 7702.933468 0003 002f 0
E: 7702.933470 0003 003a 38
E: 7702.933476 0003 002f 1
E: 7702.933477 0003 003a 40
E: 7702.933485 0003 0018 38
E: 7702.933487 0000 0000 0
E: 7702.939820 0003 002f 0
E: 7702.939822 0003 003a 40
E: 7702.939829 0003 002f 1
E: 7702.939830 0003 003a 42
E: 7702.939837 0003 0018 40
E: 7702.939839 0000 0000 0
E: 7702.946246 0003 002f 0
E: 7702.946248 0003 003a 43
E: 7702.946250 0003 0030 366
E: 7702.946255 0003 002f 1
E: 7702.946256 0003 003a 41
E: 7702.946258 0003 0030 342
E: 7702.946265 0003 0018 43
E: 7702.946267 0000 0000 0
E: 7702.952638 0003 002f 0
E: 7702.952639 0003 003a 40
E: 7702.952645 0003 002f 1
E: 7702.952646 0003 0035 561
E: 7702.952655 0003 0018 40
E: 7702.952657 0000 0000 0
E: 7702.958979 0003 002f 0
E: 7702.958981 0003 003a 43
E: 7702.958987 0003 002f 1
E: 7702.958988 0003 0035 560
E: 7702.958991 0003 003a 42
E: 7702.958993 0003 0030 366
E: 7702.958999 0003 0018 43
E: 7702.959001 0000 0000 0
E: 7702.965372 0003 002f 0
E: 7702.965373 0003 003a 40
E: 7702.965375 0003 0030 342
E: 7702.965381 0003 002f 1
E: 7702.965382 0003 003a 43
E: 7702.965384 0003 0030 342
E: 7702.965391 0003 0018 40
E: 7702.965392 0000 0000 0
E: 7702.971758 0003 0035 561
E: 7702.971761 0003 003a 42
E: 7702.971763 0003 0030 318
E: 7702.971771 0000 0000 0
E: 7702.979359 0003 002f 0
E: 7702.979361 0003 0035 236
E: 7702.979364 0003 003a 42
E: 7702.979366 0003 0030 366
E: 7702.979371 0003 0000 236
E: 7702.979374 0003 0018 42
E: 7702.979376 0000 0000 0
E: 7702.986099 0003 0035 235
E: 7702.986101 0003 0036 168
E: 7702.986108 0003 002f 1
E: 7702.986109 0003 003a 40
E: 7702.986111 0003 0030 342
E: 7702.986116 0003 0000 235
E: 7702.986118 0003 0001 168
E: 7702.986121 0000 0000 0
E: 7702.992465 0003 002f 0
E: 7702.992466 0003 0030 342
E: 7702.992472 0003 002f 1
E: 7702.992473 0003 003a 42
E: 7702.992481 0000 0000 0
E: 7702.998814 0003 002f 0
E: 7702.998815 0003 0035 236
E: 7702.998818 0003 003a 40
E: 7702.998820 0003 0030 366
E: 7702.998825 0003 002f 1
E: 7702.998827 0003 003a 39
E: 7702.998828 0003 0030 318
E: 7702.998834 0003 0000 236
E: 7702.998836 0003 0018 40
E: 7702.998838 0000 0000 0
E: 7703.005228 0003 002f 0
E: 7703.005230 0003 0035 235
E: 7703.005233 0003 003a 43
E: 7703.005235 0003 0030 342
E: 7703.005240 0003 002f 1
E: 7703.005241 0003 0035 560
E: 7703.005243 0003 003a 37
E: 7703.005245 0003 0030 342
E: 7703.005251 0003 0000 235
E: 7703.005253 0003 0018 43
E: 7703.005255 0000 0000 0
E: 7703.011623 0003 002f 0
E: 7703.011625 0003 003a 41
E: 7703.011627 0003 0030 366
E: 7703.011632 0003 002f 1
E: 7703.011634 0003 0036 949
E: 7703.011635 0003 003a 41
E: 7703.011643 0003 0018 41
E: 7703.011645 0000 0000 0
E: 7703.017581 0003 002f 0
E: 7703.017583 0003 003a 43
E: 7703.017586 0003 0030 342
E: 7703.017595 0003 0018 43
E: 7703.017598 0000 0000 0
E: 7703.024287 0003 0036 169
E: 7703.024295 0003 002f 1
E: 7703.024296 0003 003a 40
E: 7703.024298 0003 0030 318
E: 7703.024304 0003 0001 169
E: 7703.024307 0000 0000 0
E: 7703.030688 0003 002f 0
E: 7703.030689 0003 003a 41
E: 7703.030696 0003 002f 1
E: 7703.030697 0003 0030 342
E: 7703.030704 0003 0018 41
E: 7703.030706 0000 0000 0
E: 7703.036712 0003 0036 950
E: 7703.036715 0003 0030 318
E: 7703.036722 0000 0000 0
E: 7703.043130 0003 002f 0
E: 7703.043132 0003 0036 170
E: 7703.043134 0003 0030 366
E: 7703.043140 0003 0001 170
E: 7703.043143 0000 0000 0
E: 7703.056298 0003 0035 236
E: 7703.056300 0003 0036 171
E: 7703.056302 0003 003a 43
E: 7703.056304 0003 0030 342
E: 7703.056309 0003 002f 1
E: 7703.056310 0003 0036 951
E: 7703.056317 0003 0000 236
E: 7703.056319 0003 0001 171
E: 7703.056320 0003 0018 43
E: 7703.056322 0000 0000 0
E: 7703.062603 0003 002f 0
E: 7703.062604 0003 0036 172
E: 7703.062606 0003 003a 40
E: 7703.062613 0003 002f 1
E: 7703.062614 0003 003a 41
E: 7703.062616 0003 0030 342
E: 7703.062622 0003 0001 172
E: 7703.062624 0003 0018 40
E: 7703.062625 0000 0000 0
E: 7703.068990 0003 002f 0
E: 7703.068992 0003 0035 237
E: 7703.068994 0003 0036 174
E: 7703.069000 0003 002f 1
E: 7703.069001 0003 0035 559
E: 7703.069002 0003 0036 952
E: 7703.069004 0003 003a 40
E: 7703.069006 0003 0030 318
E: 7703.069012 0003 0000 237
E: 7703.069013 0003 0001 174
E: 7703.069016 0000 0000 0
E: 7703.075398 0003 002f 0
E: 7703.075400 0003 0035 238
E: 7703.075402 0003 0036 175
E: 7703.075404 0003 003a 38
E: 7703.075406 0003 0030 366
E: 7703.075411 0003 002f 1
E: 7703.075412 0003 0036 954
E: 7703.075413 0003 003a 44
E: 7703.075420 0003 0000 238
E: 7703.075422 0003 0001 175
E: 7703.075423 0003 0018 38
E: 7703.075425 0000 0000 0
E: 7703.081759 0003 002f 0
E: 7703.081761 0003 0036 176
E: 7703.081763 0003 003a 39
E: 7703.081764 0003 0030 342
E: 7703.081770 0003 002f 1
E: 7703.081771 0003 003a 42
E: 7703.081773 0003 0030 342
E: 7703.081779 0003 0001 176
E: 7703.081781 0003 0018 39
E: 7703.081783 0000 0000 0
E: 7703.088148 0003 002f 0
E: 7703.088149 0003 0035 239
E: 7703.088151 0003 0036 178
E: 7703.088153 0003 003a 38
E: 7703.088159 0003 002f 1
E: 7703.088160 0003 0036 955
E: 7703.088162 0003 003a 43
E: 7703.088168 0003 0000 239
E: 7703.088170 0003 0001 178
E: 7703.088171 0003 0018 38
E: 7703.088173 0000 0000 0
E: 7703.094573 0003 002f 0
E: 7703.094575 0003 0035 240
E: 7703.094576 0003 0036 179
E: 7703.094578 0003 003a 41
E: 7703.094580 0003 0030 366
E: 7703.094585 0003 002f 1
E: 7703.094586 0003 0036 956
E: 7703.094588 0003 003a 42
E: 7703.094594 0003 0000 240
E: 7703.094596 0003 0001 179
E: 7703.094597 0003 0018 41
E: 7703.094599 0000 0000 0
E: 7703.100984 0003 002f 0
E: 7703.100985 0003 0036 182
E: 7703.100988 0003 0030 342
E: 7703.100993 0003 002f 1
E: 7703.100994 0003 0036 957
E: 7703.100996 0003 003a 39
E: 7703.101003 0003 0001 182
E: 7703.101006 0000 0000 0
E: 7703.107345 0003 002f 0
E: 7703.107347 0003 0035 241
E: 7703.107349 0003 0036 183
E: 7703.107351 0003 003a 42
E: 7703.107353 0003 0030 366
E: 7703.107358 0003 002f 1
E: 7703.107359 0003 0035 558
E: 7703.107361 0003 0036 958
E: 7703.107363 0003 003a 41
E: 7703.107369 0003 0000 241
E: 7703.107371 0003 0001 183
E: 7703.107373 0003 0018 42
E: 7703.107375 0000 0000 0
E: 7703.113725 0003 002f 0
E: 7703.113727 0003 0036 184
E: 7703.113729 0003 003a 40
E: 7703.113735 0003 002f 1
E: 7703.113736 0003 0036 959
E: 7703.113737 0003 003a 40
E: 7703.113739 0003 0030 318
E: 7703.113746 0003 0001 184
E: 7703.113747 0003 0018 40
E: 7703.113749 0000 0000 0
E: 7703.120115 0003 002f 0
E: 7703.120117 0003 0036 185
E: 7703.120119 0003 0030 342
E: 7703.120124 0003 002f 1
E: 7703.120125 0003 0035 557
E: 7703.120127 0003 0036 960
E: 7703.120128 0003 003a 41
E: 7703.120130 0003 0030 342
E: 7703.120136 0003 0001 185
E: 7703.120139 0000 0000 0
E: 7703.126470 0003 002f 0
E: 7703.126472 0003 0035 242
E: 7703.126474 0003 0036 187
E: 7703.126476 0003 003a 41
E: 7703.126481 0003 002f 1
E: 7703.126482 0003 0035 558
E: 7703.126484 0003 0036 961
E: 7703.126486 0003 003a 43
E: 7703.126492 0003 0000 242
E: 7703.126494 0003 0001 187
E: 7703.126496 0003 0018 41
E: 7703.126498 0000 0000 0
E: 7703.132886 0003 002f 0
E: 7703.132887 0003 0036 189
E: 7703.132889 0003 003a 43
E: 7703.132894 0003 002f 1
E: 7703.132895 0003 0035 557
E: 7703.132897 0003 0036 962
E: 7703.132899 0003 003a 41
E: 7703.132906 0003 0001 189
E: 7703.132908 0003 0018 43
E: 7703.132910 0000 0000 0
E: 7703.139245 0003 002f 0
E: 7703.139247 0003 0035 243
E: 7703.139249 0003 0036 190
E: 7703.139251 0003 003a 39
E: 7703.139256 0003 002f 1
E: 7703.139257 0003 0035 558
E: 7703.139259 0003 0036 963
E: 7703.139261 0003 003a 40
E: 7703.139267 0003 0000 243
E: 7703.139269 0003 0001 190
E: 7703.139271 0003 0018 39
E: 7703.139273 0000 0000 0
E: 7703.145644 0003 002f 0
E: 7703.145646 0003 0035 244
E: 7703.145647 0003 0036 192
E: 7703.145649 0003 003a 44
E: 7703.145654 0003 002f 1
E: 7703.145656 0003 0035 557
E: 7703.145657 0003 0036 964
E: 7703.145659 0003 003a 37
E: 7703.145661 0003 0030 318
E: 7703.145667 0003 0000 244
E: 7703.145669 0003 0001 192
E: 7703.145670 0003 0018 44
E: 7703.145672 0000 0000 0
E: 7703.152001 0003 002f 0
E: 7703.152003 0003 0035 243
E: 7703.152005 0003 0036 194
E: 7703.152006 0003 003a 45
E: 7703.152012 0003 002f 1
E: 7703.152014 0003 0036 965
E: 7703.152015 0003 003a 38
E: 7703.152017 0003 0030 342
E: 7703.152023 0003 0000 243
E: 7703.152025 0003 0001 194
E: 7703.152027 0003 0018 45
E: 7703.152029 0000 0000 0
E: 7703.158372 0003 002f 0
E: 7703.158373 0003 0035 244
E: 7703.158375 0003 0036 196
E: 7703.158377 0003 003a 39
E: 7703.158379 0003 0030 366
E: 7703.158383 0003 002f 1
E: 7703.158384 0003 0035 556
E: 7703.158386 0003 0036 967
E: 7703.158388 0003 003a 41
E: 7703.158394 0003 0000 244
E: 7703.158396 0003 0001 196
E: 7703.158398 0003 0018 39
E: 7703.158400 0000 0000 0
E: 7703.164789 0003 002f 0
E: 7703.164790 0003 0036 197
E: 7703.164792 0003 003a 42
E: 7703.164794 0003 0030 342
E: 7703.164799 0003 002f 1
E: 7703.164800 0003 0036 968
E: 7703.164808 0003 0001 197
E: 7703.164810 0003 0018 42
E: 7703.164812 0000 0000 0
E: 7703.171236 0003 002f 0
E: 7703.171238 0003 0035 245
E: 7703.171240 0003 0036 198
E: 7703.171242 0003 003a 41
E: 7703.171248 0003 002f 1
E: 7703.171249 0003 0036 969
E: 7703.171251 0003 003a 39
E: 7703.171257 0003 0000 245
E: 7703.171259 0003 0001 198
E: 7703.171261 0003 0018 41
E: 7703.171263 0000 0000 0
E: 7703.179091 0003 002f 0
E: 7703.179092 0003 0035 246
E: 7703.179094 0003 0036 200
E: 7703.179096 0003 003a 42
E: 7703.179102 0003 002f 1
E: 7703.179103 0003 0036 971
E: 7703.179105 0003 003a 42
E: 7703.179111 0003 0000 246
E: 7703.179113 0003 0001 200
E: 7703.179115 0003 0018 42
E: 7703.179117 0000 0000 0
E: 7703.185521 0003 002f 0
E: 7703.185522 0003 0035 247
E: 7703.185524 0003 0036 203
E: 7703.185527 0003 0030 318
E: 7703.185533 0003 002f 1
E: 7703.185534 0003 0036 972
E: 7703.185536 0003 003a 39
E: 7703.185542 0003 0000 247
E: 7703.185544 0003 0001 203
E: 7703.185547 0000 0000 0
E: 7703.191899 0003 002f 0
E: 7703.191901 0003 0036 204
E: 7703.191904 0003 003a 46
E: 7703.191905 0003 0030 342
E: 7703.191911 0003 002f 1
E: 7703.191912 0003 0036 973
E: 7703.191914 0003 003a 40
E: 7703.191921 0003 0001 204
E: 7703.191922 0003 0018 46
E: 7703.191924 0000 0000 0
E: 7703.198248 0003 002f 0
E: 7703.198250 0003 0035 248
E: 7703.198252 0003 0036 206
E: 7703.198254 0003 003a 44
E: 7703.198260 0003 002f 1
E: 7703.198261 0003 0036 975
E: 7703.198263 0003 003a 41
E: 7703.198269 0003 0000 248
E: 7703.198271 0003 0001 206
E: 7703.198273 0003 0018 44
E: 7703.198274 0000 0000 0
E: 7703.204730 0003 002f 0
E: 7703.204733 0003 0035 249
E: 7703.204735 0003 0036 207
E: 7703.204736 0003 003a 42
E: 7703.204738 0003 0030 318
E: 7703.204743 0003 002f 1
E: 7703.204744 0003 0035 557
E: 7703.204745 0003 0036 977
E: 7703.204747 0003 003a 38
E: 7703.204749 0003 0030 318
E: 7703.204755 0003 0000 249
E: 7703.204756 0003 0001 207
E: 7703.204758 0003 0018 42
E: 7703.204760 0000 0000 0
E: 7703.211134 0003 002f 0
E: 7703.211136 0003 0036 209
E: 7703.211138 0003 003a 41
E: 7703.211144 0003 002f 1
E: 7703.211145 0003 0035 556
E: 7703.211146 0003 0036 979
E: 7703.211148 0003 003a 40
E: 7703.211150 0003 0030 342
E: 7703.211156 0003 0001 209
E: 7703.211158 0003 0018 41
E: 7703.211160 0000 0000 0
E: 7703.217556 0003 002f 0
E: 7703.217558 0003 0036 210
E: 7703.217564 0003 002f 1
E: 7703.217565 0003 0035 557
E: 7703.217567 0003 0036 980
E: 7703.217569 0003 003a 37
E: 7703.217571 0003 0030 318
E: 7703.217577 0003 0001 210
E: 7703.217580 0000 0000 0
E: 7703.224002 0003 002f 0
E: 7703.224004 0003 0036 212
E: 7703.224010 0003 002f 1
E: 7703.224011 0003 0035 556
E: 7703.224013 0003 0036 982
E: 7703.224021 0003 0001 212
E: 7703.224024 0000 0000 0
E: 7703.230466 0003 002f 0
E: 7703.230468 0003 0035 250
E: 7703.230470 0003 0036 214
E: 7703.230472 0003 003a 44
E: 7703.230474 0003 0030 342
E: 7703.230478 0003 002f 1
E: 7703.230480 0003 0035 557
E: 7703.230481 0003 0036 984
E: 7703.230484 0003 0030 366
E: 7703.230490 0003 0000 250
E: 7703.230492 0003 0001 214
E: 7703.230493 0003 0018 44
E: 7703.230495 0000 0000 0
E: 7703.236884 0003 002f 0
E: 7703.236886 0003 0035 251
E: 7703.236887 0003 0036 215
E: 7703.236889 0003 003a 43
E: 7703.236895 0003 002f 1
E: 7703.236896 0003 0036 986
E: 7703.236898 0003 003a 36
E: 7703.236900 0003 0030 318
E: 7703.236905 0003 0000 251
E: 7703.236907 0003 0001 215
E: 7703.236909 0003 0018 43
E: 7703.236911 0000 0000 0
E: 7703.243285 0003 002f 0
E: 7703.243287 0003 0036 217
E: 7703.243290 0003 0030 318
E: 7703.243295 0003 002f 1
E: 7703.243296 0003 0036 988
E: 7703.243298 0003 003a 39
E: 7703.243300 0003 0030 342
E: 7703.243306 0003 0001 217
E: 7703.243309 0000 0000 0
E: 7703.249648 0003 002f 0
E: 7703.249649 0003 0036 220
E: 7703.249651 0003 003a 48
E: 7703.249653 0003 0030 342
E: 7703.249658 0003 002f 1
E: 7703.249660 0003 0036 990
E: 7703.249661 0003 003a 35
E: 7703.249668 0003 0001 220
E: 7703.249670 0003 0018 48
E: 7703.249672 0000 0000 0
E: 7703.256088 0003 002f 0
E: 7703.256090 0003 0035 252
E: 7703.256092 0003 0036 222
E: 7703.256094 0003 003a 43
E: 7703.256100 0003 002f 1
E: 7703.256101 0003 0036 992
E: 7703.256103 0003 0030 318
E: 7703.256109 0003 0000 252
E: 7703.256111 0003 0001 222
E: 7703.256113 0003 0018 43
E: 7703.256114 0000 0000 0
E: 7703.262508 0003 002f 0
E: 7703.262510 0003 0035 254
E: 7703.262512 0003 0036 226
E: 7703.262514 0003 003a 44
E: 7703.262516 0003 0030 318
E: 7703.262521 0003 002f 1
E: 7703.262522 0003 0036 994
E: 7703.262524 0003 003a 41
E: 7703.262525 0003 0030 342
E: 7703.262531 0003 0000 254
E: 7703.262533 0003 0001 226
E: 7703.262535 0003 0018 44
E: 7703.262537 0000 0000 0
E: 7703.268963 0003 0030 342
E: 7703.268969 0003 002f 1
E: 7703.268970 0003 0036 996
E: 7703.268972 0003 003a 36
E: 7703.268973 0003 0030 318
E: 7703.268979 0003 0000 255
E: 7703.268981 0003 0001 229
E: 7703.268984 0000 0000 0
E: 7703.275429 0003 002f 0
E: 7703.275431 0003 0036 231
E: 7703.275433 0003 003a 45
E: 7703.275438 0003 002f 1
E: 7703.275439 0003 0035 558
E: 7703.275441 0003 0036 998
E: 7703.275443 0003 003a 38
E: 7703.275451 0003 0001 231
E: 7703.275452 0003 0018 45
E: 7703.275454 0000 0000 0
E: 7703.281794 0003 002f 0
E: 7703.281795 0003 0035 256
E: 7703.281797 0003 0036 233
E: 7703.281800 0003 003a 43
E: 7703.281805 0003 002f 1
E: 7703.281806 0003 0035 557
E: 7703.281808 0003 0036 1000
E: 7703.281810 0003 003a 41
E: 7703.281811 0003 0030 342
E: 7703.281817 0003 0000 256
E: 7703.281819 0003 0001 233
E: 7703.281821 0003 0018 43
E: 7703.281823 0000 0000 0
E: 7703.288170 0003 002f 0
E: 7703.288173 0003 0035 257
E: 7703.288175 0003 0036 235
E: 7703.288181 0003 002f 1
E: 7703.288182 0003 0035 559
E: 7703.288183 0003 0036 1002
E: 7703.288185 0003 003a 38
E: 7703.288192 0003 0000 257
E: 7703.288194 0003 0001 235
E: 7703.288196 0000 0000 0
E: 7703.294606 0003 002f 0
E: 7703.294608 0003 0036 237
E: 7703.294610 0003 003a 41
E: 7703.294616 0003 002f 1
E: 7703.294617 0003 0036 1003
E: 7703.294618 0003 003a 39
E: 7703.294620 0003 0030 318
E: 7703.294626 0003 0001 237
E: 7703.294628 0003 0018 41
E: 7703.294630 0000 0000 0
E: 7703.300989 0003 002f 0
E: 7703.300991 0003 0036 238
E: 7703.300993 0003 003a 43
E: 7703.300995 0003 0030 318
E: 7703.301000 0003 002f 1
E: 7703.301001 0003 0035 558
E: 7703.301003 0003 0036 1004
E: 7703.301005 0003 003a 37
E: 7703.301006 0003 0030 342
E: 7703.301013 0003 0001 238
E: 7703.301015 0003 0018 43
E: 7703.301017 0000 0000 0
E: 7703.307359 0003 002f 0
E: 7703.307360 0003 0036 239
E: 7703.307362 0003 003a 44
E: 7703.307364 0003 0030 342
E: 7703.307368 0003 002f 1
E: 7703.307369 0003 0035 559
E: 7703.307371 0003 0036 1006
E: 7703.307379 0003 0001 239
E: 7703.307380 0003 0018 44
E: 7703.307382 0000 0000 0
E: 7703.313866 0003 002f 0
E: 7703.313867 0003 0035 258
E: 7703.313870 0003 0036 240
E: 7703.313871 0003 003a 42
E: 7703.313877 0003 002f 1
E: 7703.313878 0003 0036 1007
E: 7703.313880 0003 003a 38
E: 7703.313882 0003 0030 318
E: 7703.313888 0003 0000 258
E: 7703.313889 0003 0001 240
E: 7703.313891 0003 0018 42
E: 7703.313893 0000 0000 0
E: 7703.320201 0003 002f 0
E: 7703.320202 0003 0036 241
E: 7703.320204 0003 003a 45
E: 7703.320210 0003 002f 1
E: 7703.320212 0003 0036 1009
E: 7703.320213 0003 003a 41
E: 7703.320215 0003 0030 342
E: 7703.320222 0003 0001 241
E: 7703.320224 0003 0018 45
E: 7703.320226 0000 0000 0
E: 7703.326617 0003 002f 0
E: 7703.326620 0003 0035 259
E: 7703.326622 0003 0036 243
E: 7703.326624 0003 003a 41
E: 7703.326626 0003 0030 318
E: 7703.326631 0003 002f 1
E: 7703.326632 0003 0036 1010
E: 7703.326640 0003 0000 259
E: 7703.326642 0003 0001 243
E: 7703.326643 0003 0018 41
E: 7703.326645 0000 0000 0
E: 7703.333026 0003 002f 0
E: 7703.333028 0003 0035 260
E: 7703.333030 0003 0036 244
E: 7703.333032 0003 003a 45
E: 7703.333033 0003 0030 342
E: 7703.333038 0003 002f 1
E: 7703.333039 0003 0035 560
E: 7703.333041 0003 0036 1011
E: 7703.333042 0003 003a 40
E: 7703.333048 0003 0000 260
E: 7703.333050 0003 0001 244
E: 7703.333052 0003 0018 45
E: 7703.333054 0000 0000 0
E: 7703.339381 0003 002f 0
E: 7703.339383 0003 0036 245
E: 7703.339389 0003 002f 1
E: 7703.339390 0003 0036 1012
E: 7703.339399 0003 0001 245
E: 7703.339401 0000 0000 0
E: 7703.345515 0003 0035 559
E: 7703.345518 0003 0036 1013
E: 7703.345520 0003 003a 35
E: 7703.345521 0003 0030 318
E: 7703.345529 0000 0000 0
E: 7703.352255 0003 002f 0
E: 7703.352256 0003 0035 261
E: 7703.352258 0003 0036 246
E: 7703.352260 0003 003a 42
E: 7703.352262 0003 0030 318
E: 7703.352267 0003 002f 1
E: 7703.352269 0003 003a 41
E: 7703.352270 0003 0030 342
E: 7703.352276 0003 0000 261
E: 7703.352278 0003 0001 246
E: 7703.352279 0003 0018 42
E: 7703.352281 0000 0000 0
E: 7703.358755 0003 002f 0
E: 7703.358757 0003 0035 262
E: 7703.358759 0003 0036 247
E: 7703.358766 0003 002f 1
E: 7703.358767 0003 0035 560
E: 7703.358769 0003 0036 1014
E: 7703.358770 0003 003a 39
E: 7703.358772 0003 0030 318
E: 7703.358778 0003 0000 262
E: 7703.358780 0003 0001 247
E: 7703.358783 0000 0000 0
E: 7703.365279 0003 002f 0
E: 7703.365281 0003 003a 41
E: 7703.365288 0003 002f 1
E: 7703.365289 0003 003a 34
E: 7703.365297 0003 0018 41
E: 7703.365299 0000 0000 0
E: 7703.371748 0003 002f 0
E: 7703.371750 0003 0036 248
E: 7703.371752 0003 003a 37
E: 7703.371757 0003 002f 1
E: 7703.371758 0003 0035 561
E: 7703.371760 0003 003a 29
E: 7703.371767 0003 0001 248
E: 7703.371769 0003 0018 37
E: 7703.371771 0000 0000 0
E: 7703.379387 0003 002f 0
E: 7703.379388 0003 003a 32
E: 7703.379394 0003 002f 1
E: 7703.379395 0003 0036 1015
E: 7703.379397 0003 003a 26
E: 7703.379399 0003 0030 258
E: 7703.379406 0003 0018 32
E: 7703.379408 0000 0000 0
E: 7703.385988 0003 002f 0
E: 7703.385990 0003 0035 263
E: 7703.385992 0003 003a 21
E: 7703.385994 0003 0030 258
E: 7703.385998 0003 002f 1
E: 7703.386000 0003 0035 563
E: 7703.386002 0003 003a 18
E: 7703.386004 0003 0030 182
E: 7703.386009 0003 0000 263
E: 7703.386012 0003 0018 21
E: 7703.386014 0000 0000 0
E: 7703.391459 0003 002f 0
E: 7703.391461 0003 0035 262
E: 7703.391464 0003 003a 15
E: 7703.391465 0003 0030 182
E: 7703.391471 0003 0000 262
E: 7703.391473 0003 0018 15
E: 7703.391475 0000 0000 0
E: 7703.406899 0003 002f 1
E: 7703.406901 0003 0039 -1
E: 7703.406903 0001 0145 1
E: 7703.406905 0001 014d 0
E: 7703.406910 0000 0000 0
E: 7703.410797 0003 002f 0
E: 7703.410799 0003 0039 -1
E: 7703.410802 0001 014a 0
E: 7703.410803 0001 0145 0
E: 7703.410806 0003 0018 0
E: 7703.410807 0000 0000 0
E: 7703.411307 0003 002f 0
E: 7703.411307 0003 0039 -1
E: 7703.411307 0003 002f 1
E: 7703.411307 0003 0039 -1
E: 7703.411307 0003 002f 2
E: 7703.411307 0003 0039 -1
E: 7703.411307 0003 002f 3
E: 7703.411307 0003 0039 -1
E: 7703.411307 0003 002f 4
E: 7703.411307 0003 0039 -1
E: 7703.411307 0003 002f 5
E: 7703.411307 0003 0039 -1
E: 7703.411307 0003 002f 6
E: 7703.411307 0003 0039 -1
E: 7703.411307 0003 002f 7
E: 7703.411307 0003 0039 -1
E: 7703.411307 0003 002f 8
E: 7703.411307 0003 0039 -1
E: 7703.411307 0003 002f 9
E: 7703.411307 0003 0039 -1
